Center,Center Search Status,Facility,Occupied,Status,URL Link,Record Date,Last Update,Country,Location,City,State,Zipcode
Ames Research Center,Public,N229 - EXPER. AEROTHERMODYNAMIC FAC.: ELECTRIC ARC SHOCK TUBE FACILITY (PAPAC),1/1/1961,Active,http://thermo-physics.arc.nasa.gov,3/1/1996,6/13/2014,US,"37.41412, -122.052585",Moffett Field,CA,94035
Ames Research Center,Public,N234 - THERMAL PROTECTION LAB: 2x9 INCH SUPERSONIC TURBULENT FLOW DUCT (PAPAC),1/1/1972,Active,http://thermo-physics.arc.nasa.gov,3/1/1996,6/12/2014,US,"37.41412, -122.052585",Moffett Field,CA,94035
Ames Research Center,Public,N234 - THERMAL PROTECTION LAB: AERODYNAMIC HEATING FACILITY (PAPAC),1/1/1962,Active,http://thermo-physics.arc.nasa.gov,3/1/1996,6/13/2014,US,"37.41412, -122.052585",Moffett Field,CA,94035
Ames Research Center,Public,N238 - ARC JET LABORATORY: PANEL TEST FACILITY (PAPAC),1/1/1972,Active,http://thermo-physics.arc.nasa.gov,3/1/1996,6/12/2014,US,"37.41412, -122.052585",Moffett Field,CA,94035
Ames Research Center,Public,DYNAVAC THERMAL VACUUM CHAMBER,1/1/2010,Active,http://www.nasa.gov/centers/ames/research/technology-onepagers/eng_eval_lab.html,10/29/2014,10/29/2014,US,"37.41412, -122.052585",Moffett Field,CA,94035
Ames Research Center,Public,046 - AIRCRAFT MAINTENANCE HANGAR 2,1/1/1943,Active,,10/5/2011,9/10/2014,US,"37.41412, -122.052585",Moffett Field,CA,94035
Ames Research Center,Public,N238 - ARC JET LABORATORY: INTERACTION HEATING FACILITY (PAPAC),1/1/1975,Active,http://thermo-physics.arc.nasa.gov,3/1/1996,6/13/2014,US,"37.41412, -122.052585",Moffett Field,CA,94035
Ames Research Center,Public,N206A - 12 FOOT PRESSURE WIND TUNNEL AUXILIARIES (PAPAC),1/1/1946,Active,,3/1/1996,11/22/2013,US,"37.41412, -122.052585",Moffett Field,CA,94035
Ames Research Center,Public,N237 - HYPERVELOCITY FREE FLIGHT GUN DEVELOPMENT FACILITY (PAPAC),1/1/1964,Inactive,http://thermo-physics.arc.nasa.gov,3/1/1996,7/19/2013,US,"37.41412, -122.052585",Moffett Field,CA,94035
Ames Research Center,Public,N204A - SPACE TECHNOLOGY BUILDING: AMES VERTICAL GUN RANGE (PAPAC),1/1/1966,Active,http://thermo-physics.arc.nasa.gov,3/1/1996,6/12/2014,US,"37.41412, -122.052585",Moffett Field,CA,94035
Ames Research Center,Public,N237 - HYPERVELOCITY FREE FLIGHT AERODYNAMIC FACILITY (PAPAC),1/1/1964,Active,http://thermo-physics.arc.nasa.gov,3/1/1996,6/13/2014,US,"37.41412, -122.052585",Moffett Field,CA,94035
Ames Research Center,Public,N234A - THERMAL PROTECTION LAB BOILER: STEAM VACUUM SYSTEM (PAPAC),1/1/1962,Active,http://thermo-physics.arc.nasa.gov,3/1/1996,6/12/2014,US,"37.41412, -122.052585",Moffett Field,CA,94035
Armstrong Flight Research Center,Public,Bldg. 4982 - Aeronautical Tracking Facility,,Active,,4/13/2010,12/19/2014,US,"35.000989, -117.888837",Edwards,CA,93523
Armstrong Flight Research Center,Public,Bldg. 4840 - Research Aircraft Integration Facility,1/1/1992,Active,http://www.nasa.gov/centers/dryden/pdf/152685main_RAIF_fa,3/1/1996,12/17/2014,US,"35.000989, -117.888837",Edwards,CA,93523
Armstrong Flight Research Center,Public,Bldg. 4824 - Communications Building,,Active,,4/13/2010,12/19/2014,US,"35.000989, -117.888837",Edwards,CA,93523
Armstrong Flight Research Center,Public,Bldg. 0703 - Dryden Aircraft Operations Facility,,Active,http://www.nasa.gov/centers/daof/index.html,4/13/2010,12/17/2014,US,"35.000989, -117.888837",Edwards,CA,93523
Armstrong Flight Research Center,Public,Bldg. 703 Mirror Coating Facility,,Active,,3/25/2013,7/10/2013,US,"35.000989, -117.888837",Edwards,CA,93523
Armstrong Flight Research Center,Public,Bldg. 4820 - Flight Loads Laboratory ,1/1/1966,Active,http://www.nasa.gov/centers/dryden/research/Facilities/FL,3/1/1996,7/10/2013,US,"35.000989, -117.888837",Edwards,CA,93523
Armstrong Flight Research Center,Public,Bldg. 4800 - Research Development & Test Facility,1/1/1954,Active,http://www.nasa.gov/centers/dryden/home/index.html,4/13/2010,12/19/2014,US,"35.000989, -117.888837",Edwards,CA,93523
Glenn Research Center,Public,Vacuum Facility 11 (VF-11) Bldg. 16,,Active,http://facilities.grc.nasa.gov/epl/index.html,7/15/2010,3/4/2015,US,"41.430364, -81.808561",Cleveland,OH,44135
Glenn Research Center,Public,"Statics Test Laboratory, Bldg. 5 (ERB Complex)",1/1/1942,Active,http://www.grc.nasa.gov/WWW/Facilities/ext/erb/ind,3/1/1996,3/4/2015,US,"41.430364, -81.808561",Cleveland,OH,44135
Glenn Research Center,Public,"2.2 Second Drop Tower, Bldg. 45",1/1/1958,Active,http://microgravity.grc.nasa.gov/drop2/,3/1/1996,3/4/2015,US,"41.430364, -81.808561",Cleveland,OH,44135
Glenn Research Center,Public,Creek Road Cryogenic Complex Cell 7,,Active,,6/15/2015,,US,"41.430364, -81.808561",Cleveland,OH,44135
Glenn Research Center,Public,"Cryogenic Propellant Tank Fac. (K-Site), #2811",1/1/1965,Active,http://www.grc.nasa.gov/WWW/Facilities/ext/ksite/index.html,3/1/1996,3/5/2015,US,"41.430364, -81.808561",Cleveland,OH,44135
Glenn Research Center,Public,DeHavilland DHC-6 Aircraft (N607NA),1/1/1942,Active,http://www.lerc.nasa.gov/WWW/AFED/facilities/flig,3/1/1996,3/4/2015,US,"41.430364, -81.808561",Cleveland,OH,44135
Glenn Research Center,Public,Complex of Thirteen Space Test Chambers (Bldg.16),1/1/1942,Active,http://facilities.grc.nasa.gov/eprb/index.html,3/1/1996,3/4/2015,US,"41.430364, -81.808561",Cleveland,OH,44135
Glenn Research Center,Public,"Icing Research Tunnel (IRT), Bldg #11",1/1/1943,Active,http://www.grc.nasa.gov/WWW/Facilities/ext/irt/ind,3/1/1996,3/4/2015,US,"41.430364, -81.808561",Cleveland,OH,44135
Glenn Research Center,Public,Turbomachinery Technology Facilities (ERB Complex),1/1/1942,Active,http://www.grc.nasa.gov/WWW/Facilities/ext/erb/ind,3/1/1996,3/4/2015,US,"41.430364, -81.808561",Cleveland,OH,44135
Glenn Research Center,Public,"Space Experiments Laboratory, Bldg. 110",1/1/1993,Active,,3/1/1996,3/5/2015,US,"41.430364, -81.808561",Cleveland,OH,44135
Glenn Research Center,Public,"Zero Gravity Research Facility, (Bldg. 110)",1/1/1993,Active,http://microgravity.grc.nasa.gov/zero-g/,3/1/1996,3/4/2015,US,"41.430364, -81.808561",Cleveland,OH,44135
Glenn Research Center,Public,Aeropropulsion Heat Transfer Technology Facilities,1/1/1942,Active,http://facilities.grc.nasa.gov/erb/index.html,3/1/1996,3/4/2015,US,"41.430364, -81.808561",Cleveland,OH,44135
Glenn Research Center,Public,"10 x 10 Supersonic Wind Tunnel, Bldg. 85",1/1/1955,Active,http://facilities.grc.nasa.gov/10x10/index.html,3/1/1996,3/4/2015,US,"41.430364, -81.808561",Cleveland,OH,44135
Glenn Research Center,Public,Thermal/Vacuum Chamber,,Active,http://www.grc.nasa.gov/WWW/Facilities/ext/spf/index.html,3/5/2015,,US,"41.430364, -81.808561",Cleveland,OH,44135
Glenn Research Center,Public,"1 Ft. x 1 Ft. Supersonic Wind Tunnel, Bldg. 37",1/1/1990,Active,http://facilities.grc.nasa.gov/1x1/index.html,3/1/1996,3/4/2015,US,"41.430364, -81.808561",Cleveland,OH,44135
Glenn Research Center,Public,"Aero Acoustic Propulsion Lab., (AAPL) Bldg. 145",1/1/1990,Active,http://facilities.grc.nasa.gov/aapl/index.html,3/1/1996,3/4/2015,US,"41.430364, -81.808561",Cleveland,OH,44135
Glenn Research Center,Public,Heated Tube Facility,,Inactive,,6/15/2015,6/15/2015,US,"41.430364, -81.808561",Cleveland,OH,44135
Glenn Research Center,Public,Aerodynamics Flow Physics Facilities (ERB Complex),1/1/1942,Active,http://facilities.grc.nasa.gov/erb/index.html,3/1/1996,3/4/2015,US,"41.430364, -81.808561",Cleveland,OH,44135
Glenn Research Center,Public,"Engine Components Research Lab (ECRL), Bldg. 102 ",1/1/1957,Active,http://www.grc.nasa.gov/WWW/Facilities/ext/ecrl/in,3/1/1996,3/4/2015,US,"41.430364, -81.808561",Cleveland,OH,44135
Glenn Research Center,Public,Electric Power Lab - Vacuum Facility 6 (VF-6),1/1/1961,Active,http://facilities.grc.nasa.gov/epl/index.html,3/1/1996,3/4/2015,US,"41.430364, -81.808561",Cleveland,OH,44135
Glenn Research Center,Public,Learjet 25 Aircraft (N616NA),1/1/1942,Active,http://www.lerc.nasa.gov/WWW/AFED/facilities/flig,3/1/1996,3/4/2015,US,"41.430364, -81.808561",Cleveland,OH,44135
Glenn Research Center,Public,Cryogenics Components Laboratory,,Active,http://www.grc.nasa.gov/WWW/Facilities/ext/ccl/index.html,3/5/2015,,US,"41.430364, -81.808561",Cleveland,OH,44135
Glenn Research Center,Public,"Research Combustion Laboratory, Bldg. 35",1/1/1945,Active,http://www.grc.nasa.gov/WWW/Facilities/ext/rcl/ind,3/1/1996,3/4/2015,US,"41.430364, -81.808561",Cleveland,OH,44135
Glenn Research Center,Public,Vacuum Facility 16 (VF-16) Bldg. 16,,Active,http://facilities.grc.nasa.gov/epl/index.html,7/15/2010,3/4/2015,US,"41.430364, -81.808561",Cleveland,OH,44135
Glenn Research Center,Public,Vacuum Facility 12 (VF-12) Bldg. 301,,Active,http://facilities.grc.nasa.gov/epl/index.html,7/15/2010,3/4/2015,US,"41.430364, -81.808561",Cleveland,OH,44135
Glenn Research Center,Public,"Spacecraft Propulsion Test Facility (B-2), #3211",1/1/1968,Active,,3/1/1996,3/4/2015,US,"41.430364, -81.808561",Cleveland,OH,44135
Glenn Research Center,Public,"Power Systems Facility, Bldg. 333 & 333A",1/1/1989,Active,http://www.grc.nasa.gov/WWW/Facilities/ext/psf/ind,3/1/1996,3/4/2015,US,"41.430364, -81.808561",Cleveland,OH,44135
Glenn Research Center,Public,"Materials & Structures Complex (49, 105, 106,etc.)",1/1/1943,Active,,3/1/1996,3/4/2015,US,"41.430364, -81.808561",Cleveland,OH,44135
Glenn Research Center,Public,"9 X 15 Low Speed Wind Tunnel, Bldg. 39",1/1/1969,Active,http://facilities.grc.nasa.gov/9x15/index.html,3/1/1996,3/4/2015,US,"41.430364, -81.808561",Cleveland,OH,44135
Glenn Research Center,Public,"Propulsion Systems Laboratory, Bldg. 125",1/1/1972,Active,http://facilities.grc.nasa.gov/psl/,3/1/1996,3/4/2015,US,"41.430364, -81.808561",Cleveland,OH,44135
Glenn Research Center,Public,Small Multi-Purpose Research Facility,,Active,http://facilities.grc.nasa.gov/smirf/capabilities.html,3/5/2015,6/15/2015,US,"41.430364, -81.808561",Cleveland,OH,44135
Glenn Research Center,Public,"Hypersonic Tunnel Facility (HTF), #3411",1/1/1966,Active,http://adam.lerc.nasa.gov/PlumBrookStation/htf.htm,3/1/1996,3/4/2015,US,"41.430364, -81.808561",Cleveland,OH,44135
Glenn Research Center,Public,Reverberant Acoustic Test Facility (RATF),1/1/2011,Active,http://www.grc.nasa.gov/WWW/Facilities/ext/spf/index.html,7/8/2010,3/5/2015,US,"41.430364, -81.808561",Cleveland,OH,44135
Glenn Research Center,Public,Electro Magnetic Interference (EMI) Lab,1/1/1942,Active,http://facilities.grc.nasa.gov/emi/index.html,3/1/1996,3/4/2015,US,"41.430364, -81.808561",Cleveland,OH,44135
Glenn Research Center,Public,"8 x 6 Supersonic Wind Tunnel, Bldgs. 39, 53 & 54",1/1/1948,Active,http://facilities.grc.nasa.gov/8x6/index.html,3/1/1996,3/4/2015,US,"41.430364, -81.808561",Cleveland,OH,44135
Glenn Research Center,Public,"Space Power Facility (SPF), Bldg. 1411",1/1/1968,Active,http://facilities.grc.nasa.gov/spf/,3/1/1996,3/5/2015,US,"41.430364, -81.808561",Cleveland,OH,44135
Glenn Research Center,Public,"Structural Dynamics Laboratory, Bldg. 56",1/1/1949,Active,http://facilities.grc.nasa.gov/sdl/index.html,3/1/1996,3/4/2015,US,"41.430364, -81.808561",Cleveland,OH,44135
Glenn Research Center,Public,Vacuum Facility 7 (VF-7) Bldg. 16,,Active,http://facilities.grc.nasa.gov/epl/index.html,7/15/2010,3/4/2015,US,"41.430364, -81.808561",Cleveland,OH,44135
Glenn Research Center,Public,Plumbrook Engineering Building,1/1/1966,Active,,3/1/1996,3/5/2015,US,"41.430364, -81.808561",Cleveland,OH,44135
Glenn Research Center,Public,Electric Power Lab - Vacuum Facility 5 (VF-5),1/1/1961,Active,http://www.grc.nasa.gov/WWW/Facilities/ext/capabilities/spacesim_lewis.html,3/1/1996,3/4/2015,US,"41.430364, -81.808561",Cleveland,OH,44135
Glenn Research Center,Public,Mechanical Vibration Facility,,Active,http://www.grc.nasa.gov/WWW/Facilities/ext/spf/index.html,3/5/2015,,US,"41.430364, -81.808561",Cleveland,OH,44135
Glenn Research Center,Public,Combustion and Aerochemistry Technology Facilities,1/1/1942,Active,http://facilities.grc.nasa.gov/erb/index.html,3/1/1996,3/4/2015,US,"41.430364, -81.808561",Cleveland,OH,44135
Goddard Space Flight Center,Public,"500 WSC: Antenna, 10m S-band",1/1/1977,Active,,3/1/1996,8/15/2013,US,"38.99538, -76.853161",Greenbelt,MD,20771
Goddard Space Flight Center,Public,"500 MILA: Antenna, 9m S-band",1/1/1966,Active,,3/1/1996,8/15/2013,US,"38.99538, -76.853161",Greenbelt,MD,20771
Goddard Space Flight Center,Public,"500 BDA: Antenna, 9m S-band",,Active,,3/1/1996,8/15/2013,US,"38.99538, -76.853161",Greenbelt,MD,20771
Goddard Space Flight Center,Public,"500 MILA: Antenna, 4.3m S-band",1/1/1966,Active,,3/1/1996,8/15/2013,US,"38.99538, -76.853161",Greenbelt,MD,20771
Goddard Space Flight Center,Public,"500/WSC: Antenna, 4.5m S/Ku-band",1/1/1977,Active,,3/1/1996,8/16/2013,US,"38.99538, -76.853161",Greenbelt,MD,20771
Goddard Space Flight Center,Public,500 MILA : Merritt Island Tracking Station (MILA),1/1/1966,Active,,3/1/1996,8/15/2013,US,"38.99538, -76.853161",Greenbelt,MD,20771
Goddard Space Flight Center,Public,Acoustic Test Facility Building 10,,Active,http://mscweb.gsfc.nasa.gov/549web,7/8/2010,8/16/2013,US,"38.99538, -76.853161",Greenbelt,MD,20771
Goddard Space Flight Center,Public,Vibration Test Facility - Exciter 1,,Active,http://mscweb.gsfc.nasa.gov/549web,7/7/2010,8/16/2013,US,"38.99538, -76.853161",Greenbelt,MD,20771
Goddard Space Flight Center,Public,500 BDA: Bermuda Tracking Station (BDA),,Active,,3/1/1996,8/15/2013,US,"38.99538, -76.853161",Greenbelt,MD,20771
Goddard Space Flight Center,Public,700: High Capacity Centrifuge (HCC),1/1/1965,Active,,3/1/1996,8/16/2013,US,"38.99538, -76.853161",Greenbelt,MD,20771
Goddard Space Flight Center,Public,700: Magnetic Field Component Test Facility,1/1/1963,Active,,3/1/1996,8/16/2013,US,"38.99538, -76.853161",Greenbelt,MD,20771
Goddard Space Flight Center,Public,"700: Space Simulation Laboratory, Building 7/10/15",1/1/1962,Active,,3/1/1996,8/16/2013,US,"38.99538, -76.853161",Greenbelt,MD,20771
Goddard Space Flight Center,Public,"500 BDA: Radar, FPQ-6",,Active,,3/1/1996,8/15/2013,US,"38.99538, -76.853161",Greenbelt,MD,20771
Goddard Space Flight Center,Public,500: Mission Operations Center Facility,1/1/1961,Active,,3/1/1996,8/16/2013,US,"38.99538, -76.853161",Greenbelt,MD,20771
Goddard Space Flight Center,Public,TDRSS Control Center,1/1/1977,Active,,3/1/1996,8/16/2013,US,"38.99538, -76.853161",Greenbelt,MD,20771
Goddard Space Flight Center,Public,500/WSC: Data Interface System,1/1/1977,Active,,3/1/1996,8/16/2013,US,"38.99538, -76.853161",Greenbelt,MD,20771
Goddard Space Flight Center,Public,"Facility 225, Thermal Vacuum Chamber, B.7",1/1/1962,Active,http://mscweb.gsfc.nasa.gov/549web,3/1/1996,8/16/2013,US,"38.99538, -76.853161",Greenbelt,MD,20771
Goddard Space Flight Center,Public,"Facility 238, Thermal Vacuum Chamber, B.7",,Active,http://mscweb.gsfc.nasa.gov/549web,7/9/2010,8/16/2013,US,"38.99538, -76.853161",Greenbelt,MD,20771
Goddard Space Flight Center,Public,Sensor Data Processing Facility,1/1/1965,Active,,3/1/1996,8/16/2013,US,"38.99538, -76.853161",Greenbelt,MD,20771
Goddard Space Flight Center,Public,600: Plasma Calibration Facility,1/1/1960,Active,,3/1/1996,8/16/2013,US,"38.99538, -76.853161",Greenbelt,MD,20771
Goddard Space Flight Center,Public,"700: Space Environment Simulator, Facility 290",1/1/1962,Active,http://mscweb.gsfc.nasa.gov/549web,3/1/1996,8/19/2013,US,"38.99538, -76.853161",Greenbelt,MD,20771
Goddard Space Flight Center,Public,"500: NASA Communications Facility (NASCOM), B. 3",1/1/1961,Active,,3/1/1996,8/16/2013,US,"38.99538, -76.853161",Greenbelt,MD,20771
Goddard Space Flight Center,Public,700: Cryogenic Research and Integration Facility,1/1/1994,Active,,3/1/1996,8/16/2013,US,"38.99538, -76.853161",Greenbelt,MD,20771
Goddard Space Flight Center,Public,500 Flight Dynamics Facility,1/1/1961,Active,,3/1/1996,8/16/2013,US,"38.99538, -76.853161",Greenbelt,MD,20771
Goddard Space Flight Center,Public,"500: NASA Communications Facility (NASCOM), B.14",1/1/1964,Active,,3/1/1996,8/16/2013,US,"38.99538, -76.853161",Greenbelt,MD,20771
Goddard Space Flight Center,Public,700: Environmental Test Engineering & Integration,1/1/1962,Active,,3/1/1996,8/16/2013,US,"38.99538, -76.853161",Greenbelt,MD,20771
Goddard Space Flight Center,Public,"500 WSC: Antenna, 19m S/Ku-band",1/1/1977,Active,,3/1/1996,8/16/2013,US,"38.99538, -76.853161",Greenbelt,MD,20771
Goddard Space Flight Center,Public,900: NASA Center for Computational Sciences/ B. 28,,Active,,3/1/1996,8/16/2013,US,"38.99538, -76.853161",Greenbelt,MD,20771
Goddard Space Flight Center,Public,700: Global Positioning System (GPS) Verification,1/1/1963,Active,,3/1/1996,8/16/2013,US,"38.99538, -76.853161",Greenbelt,MD,20771
Goddard Space Flight Center,Public,Vibration Test Facility - Exciter 2,,Active,http://mscweb.gsfc.nasa.gov/549web,7/7/2010,8/16/2013,US,"38.99538, -76.853161",Greenbelt,MD,20771
Goddard Space Flight Center,Public,"700: SSDIF Clean Room, B.29",1/1/1990,Active,,3/1/1996,8/16/2013,US,"38.99538, -76.853161",Greenbelt,MD,20771
Goddard Space Flight Center,Public,500: Space-Ground Link Terminal,1/1/1977,Active,,3/1/1996,8/16/2013,US,"38.99538, -76.853161",Greenbelt,MD,20771
Jet Propulsion Lab,Public,Mirror Refurbishment Building,1/1/1992,Active,,3/1/1996,8/8/2013,US,"34.178124, -118.150662",Pasadena,CA,91109
Jet Propulsion Lab,Public,Space Flight Operations Facility,1/1/1964,Active,,3/1/1996,8/8/2013,US,"34.178124, -118.150662",Pasadena,CA,91109
Jet Propulsion Lab,Public,DSS 15 Antenna,1/1/1958,Active,,3/1/1996,8/7/2013,US,"34.178124, -118.150662",Pasadena,CA,91109
Jet Propulsion Lab,Public,"Atomic Oxygen Test Facility, 121-100",1/1/1965,Active,,3/1/1996,8/7/2013,US,"34.178124, -118.150662",Pasadena,CA,91109
Jet Propulsion Lab,Public,DSS 66 Antenna,1/1/1964,Inactive,,3/1/1996,8/7/2013,US,"34.178124, -118.150662",Pasadena,CA,91109
Jet Propulsion Lab,Public,48-inch Telescope,1/1/1988,Active,,3/1/1996,8/7/2013,US,"34.178124, -118.150662",Pasadena,CA,91109
Jet Propulsion Lab,Public,Thermal Vacuum Chamber 306-TV-11,,Active,http://etl.jpl.nasa.gov,7/6/2010,8/8/2013,US,"34.178124, -118.150662",Pasadena,CA,91109
Jet Propulsion Lab,Public,Energy Conservation Laboratory High Bay Chamber,,Active,,7/6/2010,8/7/2013,US,"34.178124, -118.150662",Pasadena,CA,91109
Jet Propulsion Lab,Public,Remote Surface Lab,1/1/1972,Active,,3/1/1996,8/8/2013,US,"34.178124, -118.150662",Pasadena,CA,91109
Jet Propulsion Lab,Public,Thermal Vacuum Chamber 144-TV-10,1/1/1964,Active,http://etl.jpl.nasa.gov,7/6/2010,8/8/2013,US,"34.178124, -118.150662",Pasadena,CA,91109
Jet Propulsion Lab,Public,DSS 12 Antenna,1/1/1958,Inactive,,3/1/1996,8/7/2013,US,"34.178124, -118.150662",Pasadena,CA,91109
Jet Propulsion Lab,Public,Mesa Antenna Test Facility,1/1/1980,Active,,3/1/1996,8/7/2013,US,"34.178124, -118.150662",Pasadena,CA,91109
Jet Propulsion Lab,Public,Acoustics Noise Test Cell,1/1/1961,Active,http://etl.jpl.nasa.gov,3/1/1996,8/7/2013,US,"34.178124, -118.150662",Pasadena,CA,91109
Jet Propulsion Lab,Public,DSS 16 Antenna,1/1/1958,Inactive,,3/1/1996,8/7/2013,US,"34.178124, -118.150662",Pasadena,CA,91109
Jet Propulsion Lab,Public,DSS 45 Antenna,1/1/1963,Active,,3/1/1996,8/7/2013,US,"34.178124, -118.150662",Pasadena,CA,91109
Jet Propulsion Lab,Public,DSS 63 Antenna,1/1/1964,Active,,3/1/1996,8/7/2013,US,"34.178124, -118.150662",Pasadena,CA,91109
Jet Propulsion Lab,Public,Microdevices Laboratory (MDL),1/1/1990,Active,,3/1/1996,8/8/2013,US,"34.178124, -118.150662",Pasadena,CA,91109
Jet Propulsion Lab,Public,DSS 65 Antenna,1/1/1964,Active,,3/1/1996,8/7/2013,US,"34.178124, -118.150662",Pasadena,CA,91109
Jet Propulsion Lab,Public,SOLAR TEST FACILITY,1/1/1985,Active,,3/1/1996,8/8/2013,US,"34.178124, -118.150662",Pasadena,CA,91109
Jet Propulsion Lab,Public,DSS 61 Antenna,1/1/1964,Active,,3/1/1996,8/7/2013,US,"34.178124, -118.150662",Pasadena,CA,91109
Jet Propulsion Lab,Public,24 inch Telescope,1/1/1965,Active,,3/1/1996,8/7/2013,US,"34.178124, -118.150662",Pasadena,CA,91109
Jet Propulsion Lab,Public,DSS 14 Antenna,1/1/1958,Active,,3/1/1996,8/7/2013,US,"34.178124, -118.150662",Pasadena,CA,91109
Jet Propulsion Lab,Public,Optical Laboratories,1/1/1993,Active,,3/1/1996,8/8/2013,US,"34.178124, -118.150662",Pasadena,CA,91109
Jet Propulsion Lab,Public,Lidar Facility,1/1/1973,Active,,3/1/1996,8/7/2013,US,"34.178124, -118.150662",Pasadena,CA,91109
Jet Propulsion Lab,Public,DSS 46 Antenna,1/1/1963,Inactive,,3/1/1996,8/7/2013,US,"34.178124, -118.150662",Pasadena,CA,91109
Jet Propulsion Lab,Public,Large Shaker Dynamics Test Facility,1/1/1964,Active,http://etl.jpl.nasa.gov,3/1/1996,8/7/2013,US,"34.178124, -118.150662",Pasadena,CA,91109
Jet Propulsion Lab,Public,Frequency Standards Laboratory,1/1/1985,Active,,3/1/1996,8/7/2013,US,"34.178124, -118.150662",Pasadena,CA,91109
Jet Propulsion Lab,Public,Thermal-Vacuum Chamber 144-TV-7,1/1/1961,Active,http://etl.jpl.nasa.gov,3/1/1996,8/8/2013,US,"34.178124, -118.150662",Pasadena,CA,91109
Jet Propulsion Lab,Public,DSS 24 Antenna,1/1/1994,Active,,3/1/1996,8/7/2013,US,"34.178124, -118.150662",Pasadena,CA,91109
Jet Propulsion Lab,Public,Energy Conservation Laboratory Patio Chamber,,Active,,7/6/2010,8/7/2013,US,"34.178124, -118.150662",Pasadena,CA,91109
Jet Propulsion Lab,Public,10-Ft Vertical Space Simulator,1/1/1965,Inactive,http://etl.jpl.nasa.gov,3/1/1996,8/7/2013,US,"34.178124, -118.150662",Pasadena,CA,91109
Jet Propulsion Lab,Public,CTA-21,1/1/1955,Active,,3/1/1996,8/7/2013,US,"34.178124, -118.150662",Pasadena,CA,91109
Jet Propulsion Lab,Public,DSS 43 Antenna,1/1/1963,Active,,3/1/1996,8/7/2013,US,"34.178124, -118.150662",Pasadena,CA,91109
Jet Propulsion Lab,Public,DSS 13 Antenna,1/1/1958,Active,,3/1/1996,8/7/2013,US,"34.178124, -118.150662",Pasadena,CA,91109
Jet Propulsion Lab,Public,Computer Vision Lab.,1/1/1948,Active,,3/1/1996,8/7/2013,US,"34.178124, -118.150662",Pasadena,CA,91109
Jet Propulsion Lab,Public,25-Ft Space Simulator,1/1/1961,Active,http://etl.jpl.nasa.gov,3/1/1996,8/7/2013,US,"34.178124, -118.150662",Pasadena,CA,91109
Jet Propulsion Lab,Public,Robotic Vehicle Lab,1/1/1948,Active,,3/1/1996,8/8/2013,US,"34.178124, -118.150662",Pasadena,CA,91109
Johnson Space Center,Public,"Sonic Fatique Lab (SFL), B-49",,Active,http://www.nasa.gov/centers/johnson/pdf/639503main_VATF_User_Test_Planning_Guide.pdf,7/8/2010,9/26/2012,US,"29.559177, -95.097897",Houston,TX,77058
Johnson Space Center,Public,General Vibration Lab (GVL),1/1/2012,Active,http://www.nasa.gov/centers/johnson/pdf/639503main_VATF_User_Test_Planning_Guide.pdf,7/8/2010,9/26/2012,US,"29.559177, -95.097897",Houston,TX,77058
Johnson Space Center,Public,"Chamber B, EC, B-32 ",1/1/1964,Active,http://www.nasa.gov/centers/johnson/engineering/test_facilities/human_space_testing/detChamberB.html,3/1/1996,9/26/2012,US,"29.559177, -95.097897",Houston,TX,77058
Johnson Space Center,Public,Vibration Acoustic Test Facility - B-49,,Active,http://www.nasa.gov/centers/johnson/pdf/639503main_VATF_User_Test_Planning_Guide.pdf,9/26/2012,9/26/2012,US,"29.559177, -95.097897",Houston,TX,77058
Johnson Space Center,Public,"Spacecraft Acoustic Lab (SAL), B-49",,Active,http://www.nasa.gov/centers/johnson/pdf/639503main_VATF_User_Test_Planning_Guide.pdf,7/8/2010,9/26/2012,US,"29.559177, -95.097897",Houston,TX,77058
Johnson Space Center,Public,"Chamber A, EC, B-32 ",1/1/1964,Under Rehabilitation,http://ctsdtests.jsc.nasa.gov/A.html,3/1/1996,9/26/2012,US,"29.559177, -95.097897",Houston,TX,77058
Kennedy Space Center,Public,"Corrosion Test Site, K8-0237",1/1/2000,Active,,5/11/1998,6/22/2015,US,"28.538331, -81.378879",Kennedy Space Center,FL,32899
Kennedy Space Center,Public,Operations Support Building/K6-1096,1/1/1990,,,3/1/1996,6/22/2015,US,"28.538331, -81.378879",Kennedy Space Center,FL,32899
Kennedy Space Center,Public,Emergency Landing Sites (ELS) Low Inclination ,1/1/1980,,,3/1/1996,6/22/2015,US,"28.538331, -81.378879",Kennedy Space Center,FL,32899
Kennedy Space Center,Public,LB Cells (4) Low Bay Area/West/K6-848/VAB ,1/1/1966,,,3/1/1996,6/22/2015,US,"28.538331, -81.378879",Kennedy Space Center,FL,32899
Kennedy Space Center,Public,High Bay 2/1726/HGR-S ,1/1/1957,,,3/1/1996,6/22/2015,US,"28.538331, -81.378879",Kennedy Space Center,FL,32899
Kennedy Space Center,Public,Intermediate Bay/M7-360/SSPF ,1/1/1995,,,3/1/1996,6/22/2015,US,"28.538331, -81.378879",Kennedy Space Center,FL,32899
Kennedy Space Center,Public,High Bay 1/1726/HGR-S ,1/1/1957,,,3/1/1996,6/22/2015,US,"28.538331, -81.378879",Kennedy Space Center,FL,32899
Kennedy Space Center,Public,Mobile Launcher Platform 3 ,1/1/1966,,,3/1/1996,6/22/2015,US,"28.538331, -81.378879",Kennedy Space Center,FL,32899
Kennedy Space Center,Public,Payload Canister Transporter (P70-0559) ,1/1/1979,,,3/1/1996,6/22/2015,US,"28.538331, -81.378879",Kennedy Space Center,FL,32899
Kennedy Space Center,Public,Orbiter Processing Fac.(OPF) Low Bay Area/K6-894,1/1/1977,,,3/1/1996,6/22/2015,US,"28.538331, -81.378879",Kennedy Space Center,FL,32899
Kennedy Space Center,Public,Turn Basin/K7-1005 ,1/1/1963,,,3/1/1996,6/22/2015,US,"28.538331, -81.378879",Kennedy Space Center,FL,32899
Kennedy Space Center,Public,Orbiter Processing Facility(OPF)Low Bay 3/K6-696,1/1/1987,,,3/1/1996,6/22/2015,US,"28.538331, -81.378879",Kennedy Space Center,FL,32899
Kennedy Space Center,Public,Launch Equipment Test Facility (LETF)/M7-505A ,1/1/1975,,,3/1/1996,6/22/2015,US,"28.538331, -81.378879",Kennedy Space Center,FL,32899
Kennedy Space Center,Public,LCC Control Room 3/FR-3/Third Floor/K6-900 ,1/1/1966,,,3/1/1996,6/22/2015,US,"28.538331, -81.378879",Kennedy Space Center,FL,32899
Kennedy Space Center,Public,High Bay Towers (6)/K6-848/VAB ,1/1/1966,,,3/1/1996,6/22/2015,US,"28.538331, -81.378879",Kennedy Space Center,FL,32899
Kennedy Space Center,Public,High Bay 3 Cell/K6-848/VAB ,1/1/1966,,,3/1/1996,6/22/2015,US,"28.538331, -81.378879",Kennedy Space Center,FL,32899
Kennedy Space Center,Public,"Crawler-Transporter, CT2 ",1/1/1966,,,3/1/1996,6/22/2015,US,"28.538331, -81.378879",Kennedy Space Center,FL,32899
Kennedy Space Center,Public,RPSF Surge Building #2/K6-0345 ,1/1/1984,,,3/1/1996,6/22/2015,US,"28.538331, -81.378879",Kennedy Space Center,FL,32899
Kennedy Space Center,Public,High Bay/Low Bay/Processing Rooms/M7-355/O&C,1/1/1963,,,3/1/1996,6/22/2015,US,"28.538331, -81.378879",Kennedy Space Center,FL,32899
Kennedy Space Center,Public,Central Instrumentation Facility (CIF)/M6-342 ,1/1/1965,,,3/1/1996,6/22/2015,US,"28.538331, -81.378879",Kennedy Space Center,FL,32899
Kennedy Space Center,Public,Launch Pad 39A/J8-1708 ,1/1/1965,,,3/1/1996,6/22/2015,US,"28.538331, -81.378879",Kennedy Space Center,FL,32899
Kennedy Space Center,Public,Control Room 2/1726/HGR-S ,1/1/1957,,,3/1/1996,6/22/2015,US,"28.538331, -81.378879",Kennedy Space Center,FL,32899
Kennedy Space Center,Public,Low Bay Transfer Aisle/K6-848/VAB,1/1/1966,,,3/1/1996,6/22/2015,US,"28.538331, -81.378879",Kennedy Space Center,FL,32899
Kennedy Space Center,Public,High Bay/M7-1354/PHSF ,1/1/1985,,,3/1/1996,6/22/2015,US,"28.538331, -81.378879",Kennedy Space Center,FL,32899
Kennedy Space Center,Public,LCC Control Room 1/FR-1/Third Floor/K6-900 ,1/1/1966,,,3/1/1996,6/22/2015,US,"28.538331, -81.378879",Kennedy Space Center,FL,32899
Kennedy Space Center,Public,High Bay Transfer Aisle/K6-848/VAB ,1/1/1966,,,3/1/1996,6/22/2015,US,"28.538331, -81.378879",Kennedy Space Center,FL,32899
Kennedy Space Center,Public,Thermal Protection System (TPS)/K6-0794 ,1/1/1988,,,3/1/1996,6/22/2015,US,"28.538331, -81.378879",Kennedy Space Center,FL,32899
Kennedy Space Center,Public,SRB Recovery Facility/66250/HGR-AF ,1/1/1963,,,3/1/1996,6/22/2015,US,"28.538331, -81.378879",Kennedy Space Center,FL,32899
Kennedy Space Center,Public,Payload Canister (P70-0870) 2 EA ,1/1/1979,,,3/1/1996,6/22/2015,US,"28.538331, -81.378879",Kennedy Space Center,FL,32899
Kennedy Space Center,Public,High Bay 1 Cell/K6-848/VAB ,1/1/1966,Active,,3/1/1996,6/22/2015,US,"28.538331, -81.378879",Kennedy Space Center,FL,32899
Kennedy Space Center,Public,Airlock/1726/HGR-S,1/1/1957,Active,,3/1/1996,6/22/2015,US,"28.538331, -81.378879",Kennedy Space Center,FL,32899
Kennedy Space Center,Public,Orbiter Processing Facility(OPF) Bay 1/K6-894 ,1/1/1977,,,3/1/1996,6/22/2015,US,"28.538331, -81.378879",Kennedy Space Center,FL,32899
Kennedy Space Center,Public,Mobile Launcher Platform 1 ,1/1/1966,,,3/1/1996,6/22/2015,US,"28.538331, -81.378879",Kennedy Space Center,FL,32899
Kennedy Space Center,Public,LCC Control Room 2/FR-2/Third Floor/K6-900 ,1/1/1966,,,3/1/1996,6/22/2015,US,"28.538331, -81.378879",Kennedy Space Center,FL,32899
Kennedy Space Center,Public,Orbiter Processing Facility(OPF) Bay 2/K6-894 ,1/1/1977,,,3/1/1996,6/22/2015,US,"28.538331, -81.378879",Kennedy Space Center,FL,32899
Kennedy Space Center,Public,RPSF Contractor Support Building/K6-0445 ,1/1/1984,,,3/1/1996,6/22/2015,US,"28.538331, -81.378879",Kennedy Space Center,FL,32899
Kennedy Space Center,Public,HMF South Processing Bldg/Support Area/M7-1212 ,1/1/1964,,,3/1/1996,6/22/2015,US,"28.538331, -81.378879",Kennedy Space Center,FL,32899
Kennedy Space Center,Public,North Wing/60680/HGR-AE ,1/1/1959,,,3/1/1996,6/22/2015,US,"28.538331, -81.378879",Kennedy Space Center,FL,32899
Kennedy Space Center,Public,Facility Control Building/M7-1354/PHSF ,1/1/1985,,,3/1/1996,6/22/2015,US,"28.538331, -81.378879",Kennedy Space Center,FL,32899
Kennedy Space Center,Public,Altitude Chambers/Deactivated/M7-355/O&C,1/1/1963,,,3/1/1996,6/22/2015,US,"28.538331, -81.378879",Kennedy Space Center,FL,32899
Kennedy Space Center,Public,LCC Control Room 4/FR-4/Third Floor/K6-900 ,1/1/1966,,,3/1/1996,6/22/2015,US,"28.538331, -81.378879",Kennedy Space Center,FL,32899
Kennedy Space Center,Public,High Bay Clean Room Complex/60680/HGR-AE,1/1/1959,,,3/1/1996,6/22/2015,US,"28.538331, -81.378879",Kennedy Space Center,FL,32899
Kennedy Space Center,Public,Engineering Development Laboratory/M7-409 ,1/1/1966,,,3/1/1996,6/22/2015,US,"28.538331, -81.378879",Kennedy Space Center,FL,32899
Kennedy Space Center,Public,Airlock/M7-1354/PHSF ,1/1/1985,,,3/1/1996,6/22/2015,US,"28.538331, -81.378879",Kennedy Space Center,FL,32899
Kennedy Space Center,Public,Orbiter Processing Facility(OPF) HB 3/K6-696,1/1/1987,,,3/1/1996,6/22/2015,US,"28.538331, -81.378879",Kennedy Space Center,FL,32899
Kennedy Space Center,Public,High Bay 4 Cell/K6-848/VAB ,1/1/1966,,,3/1/1996,6/22/2015,US,"28.538331, -81.378879",Kennedy Space Center,FL,32899
Kennedy Space Center,Public,Support Areas/M7-360/SSPF ,1/1/1995,,,3/1/1996,6/22/2015,US,"28.538331, -81.378879",Kennedy Space Center,FL,32899
Kennedy Space Center,Public,Launch Equipment Shop (LES)/K6-1247 ,1/1/1965,,,3/1/1996,6/22/2015,US,"28.538331, -81.378879",Kennedy Space Center,FL,32899
Kennedy Space Center,Public,"Crawler-Transporter, CT1 ",1/1/1966,,,3/1/1996,6/22/2015,US,"28.538331, -81.378879",Kennedy Space Center,FL,32899
Kennedy Space Center,Public,Launch Pad 39B/J7-337 ,1/1/1965,,,3/1/1996,6/22/2015,US,"28.538331, -81.378879",Kennedy Space Center,FL,32899
Kennedy Space Center,Public,High Bay/Processing Area/M7-1104/MPPF ,1/1/1994,,,3/1/1996,6/22/2015,US,"28.538331, -81.378879",Kennedy Space Center,FL,32899
Kennedy Space Center,Public,Electromagnetic Laboratory/M6-336 ,1/1/1963,,,3/1/1996,6/22/2015,US,"28.538331, -81.378879",Kennedy Space Center,FL,32899
Kennedy Space Center,Public,South Wing/60680/HGR-AE ,1/1/1959,,,3/1/1996,6/22/2015,US,"28.538331, -81.378879",Kennedy Space Center,FL,32899
Kennedy Space Center,Public,LB Cells (4) Low Bay Area/East/K6-848/VAB ,1/1/1966,,,3/1/1996,6/22/2015,US,"28.538331, -81.378879",Kennedy Space Center,FL,32899
Kennedy Space Center,Public,Canister Rotation Facility/M7-777 ,1/1/1992,,,3/1/1996,6/22/2015,US,"28.538331, -81.378879",Kennedy Space Center,FL,32899
Kennedy Space Center,Public,Control Room /1726/HGR-S ,1/1/1957,,,3/1/1996,6/22/2015,US,"28.538331, -81.378879",Kennedy Space Center,FL,32899
Kennedy Space Center,Public,Central Supply Warehouse (M6-744) ,1/1/1964,,,3/1/1996,6/22/2015,US,"28.538331, -81.378879",Kennedy Space Center,FL,32899
Kennedy Space Center,Public,Processing Control Center/K6-1094 ,1/1/1992,,,3/1/1996,6/22/2015,US,"28.538331, -81.378879",Kennedy Space Center,FL,32899
Kennedy Space Center,Public,High Bay 2 Cell/K6-848/VAB ,1/1/1966,Active,,3/1/1996,6/22/2015,US,"28.538331, -81.378879",Kennedy Space Center,FL,32899
Kennedy Space Center,Public,High Bay/M7-360/SSPF ,1/1/1995,,,3/1/1996,6/22/2015,US,"28.538331, -81.378879",Kennedy Space Center,FL,32899
Kennedy Space Center,Public,SRM Rotation and Processing Facility/K6-0494 ,1/1/1984,,,3/1/1996,6/22/2015,US,"28.538331, -81.378879",Kennedy Space Center,FL,32899
Kennedy Space Center,Public,HMF Storage Building East/M7-1412 ,1/1/1964,,,3/1/1996,6/22/2015,US,"28.538331, -81.378879",Kennedy Space Center,FL,32899
Kennedy Space Center,Public,HMF South Processing Bldg/East High Bay/M7-1212 ,1/1/1964,,,3/1/1996,6/22/2015,US,"28.538331, -81.378879",Kennedy Space Center,FL,32899
Kennedy Space Center,Public,Payload Support Facility/M7-505 ,1/1/1962,,,3/1/1996,6/22/2015,US,"28.538331, -81.378879",Kennedy Space Center,FL,32899
Kennedy Space Center,Public,Airlock/M7-360/SSPF ,1/1/1995,,,3/1/1996,6/22/2015,US,"28.538331, -81.378879",Kennedy Space Center,FL,32899
Kennedy Space Center,Public,Payload Shipping Container (Hubble) (P70-0870) ,1/1/1986,,,3/1/1996,6/22/2015,US,"28.538331, -81.378879",Kennedy Space Center,FL,32899
Kennedy Space Center,Public,Logistics Facility/K6-1547/Shuttle ,1/1/1986,,,3/1/1996,6/22/2015,US,"28.538331, -81.378879",Kennedy Space Center,FL,32899
Kennedy Space Center,Public,Emergency Landing Sites (ELS) High Inclination ,1/1/1980,,,3/1/1996,6/22/2015,US,"28.538331, -81.378879",Kennedy Space Center,FL,32899
Kennedy Space Center,Public,Operations and Checkout West Vacuum Chamber,,Inactive,,7/10/2010,6/22/2015,US,"28.538331, -81.378879",Kennedy Space Center,FL,32899
Kennedy Space Center,Public,Radioisotope Thermal Generator Facility/M7-1472 ,1/1/1960,,,3/1/1996,6/22/2015,US,"28.538331, -81.378879",Kennedy Space Center,FL,32899
Kennedy Space Center,Public,LPS Central Data Subsystem Area/2nd Flr/K6-900/LCC,1/1/1966,,,3/1/1996,6/22/2015,US,"28.538331, -81.378879",Kennedy Space Center,FL,32899
Kennedy Space Center,Public,RPSF Support Building/K6-0495 ,1/1/1984,,,3/1/1996,6/22/2015,US,"28.538331, -81.378879",Kennedy Space Center,FL,32899
Kennedy Space Center,Public,Central Frame Low Bay/60680/HGR-AE ,1/1/1959,,,3/1/1996,6/22/2015,US,"28.538331, -81.378879",Kennedy Space Center,FL,32899
Kennedy Space Center,Public,RPSF Surge Building #1/K6-0497 ,1/1/1984,,,3/1/1996,6/22/2015,US,"28.538331, -81.378879",Kennedy Space Center,FL,32899
Kennedy Space Center,Public,Headquarters Building/M6-399 ,1/1/1965,Active,,3/1/1996,6/22/2015,US,"28.538331, -81.378879",Kennedy Space Center,FL,32899
Kennedy Space Center,Public,"SLF: KSC Shuttle Landing Facility, UK-27 ",1/1/1976,Active,,3/1/1996,6/22/2015,US,"28.538331, -81.378879",Kennedy Space Center,FL,32899
Kennedy Space Center,Public,Orbiter Processing Facility(OPF) Annex/K6-894 ,1/1/1977,,,3/1/1996,6/22/2015,US,"28.538331, -81.378879",Kennedy Space Center,FL,32899
Kennedy Space Center,Public,Mobile Launcher Platform 2 ,1/1/1966,,,3/1/1996,6/22/2015,US,"28.538331, -81.378879",Kennedy Space Center,FL,32899
Kennedy Space Center,Public,ASRM Kneel Down Transporter ,1/1/1993,,,3/1/1996,6/22/2015,US,"28.538331, -81.378879",Kennedy Space Center,FL,32899
Kennedy Space Center,Public,Utility Annex/K6-947/VAB AREA ,1/1/1966,,,3/1/1996,6/22/2015,US,"28.538331, -81.378879",Kennedy Space Center,FL,32899
Kennedy Space Center,Public,Support Areas/1726/HGR-S ,1/1/1957,,,3/1/1996,6/22/2015,US,"28.538331, -81.378879",Kennedy Space Center,FL,32899
Kennedy Space Center,Public,HMF South Processing Bldg/West High Bay/M7-1212 ,1/1/1964,,,3/1/1996,6/22/2015,US,"28.538331, -81.378879",Kennedy Space Center,FL,32899
Kennedy Space Center,Public,"Ordnance Storage Fac/K7-255,-306,-356,-405,-506 ",1/1/1965,,,3/1/1996,6/22/2015,US,"28.538331, -81.378879",Kennedy Space Center,FL,32899
Kennedy Space Center,Public,RPSF Shop/Storage Building/K6-0446 ,1/1/1984,,,3/1/1996,6/22/2015,US,"28.538331, -81.378879",Kennedy Space Center,FL,32899
Langley Research Center,Public,Structural Dynamics Research Lab,1/1/1963,Active,,3/1/1996,2/25/2013,US,"37.08681, -76.376649",Hampton,VA,23681-2199
Langley Research Center,Public,Structural Acoustic Loads & Transmission Facility,,Active,http://stab.larc.nasa.gov/Fac-SALT.html,8/1/2012,8/2/2012,US,"37.08681, -76.376649",Hampton,VA,23681-2199
Langley Research Center,Public,Radiation Physics Computer Laboratory,1/1/1965,Active,,3/1/1996,2/25/2013,US,"37.08681, -76.376649",Hampton,VA,23681-2199
Langley Research Center,Public,Fabrication Lab,1/1/1958,Active,,3/1/1996,2/25/2013,US,"37.08681, -76.376649",Hampton,VA,23681-2199
Langley Research Center,Public,Thermal Acoustic Fatigue Apparatus,,Active,http://stab.larc.nasa.gov/Fac-TAFA.html,8/2/2012,8/2/2012,US,"37.08681, -76.376649",Hampton,VA,23681-2199
Langley Research Center,Public,20-Inch Mach CF4 Tunnel,1/1/1960,Inactive,http://www.aeronautics.nasa.gov/atp/index.html,3/1/1996,1/28/2013,US,"37.08681, -76.376649",Hampton,VA,23681-2199
Langley Research Center,Public,Micometeroid/LDEF Analysis Laboratory,1/1/1965,Active,,3/1/1996,2/25/2013,US,"37.08681, -76.376649",Hampton,VA,23681-2199
Langley Research Center,Public,Investment Casting Development Lab/B1237A,,Active,,6/15/2006,2/25/2013,US,"37.08681, -76.376649",Hampton,VA,23681-2199
Langley Research Center,Public,Thermal Structures Lab,1/1/1960,Active,,3/1/1996,2/25/2013,US,"37.08681, -76.376649",Hampton,VA,23681-2199
Langley Research Center,Public,Experimental Avionics Systems Integration Lab,1/1/1951,Active,,3/1/1996,2/15/2013,US,"37.08681, -76.376649",Hampton,VA,23681-2199
Langley Research Center,Public,Low Frequency Antenna Test Facility,1/1/1965,Active,,3/1/1996,2/25/2013,US,"37.08681, -76.376649",Hampton,VA,23681-2199
Langley Research Center,Public,Landing and Impact Research Facility,1/1/1966,Active,,3/1/1996,2/25/2013,US,"37.08681, -76.376649",Hampton,VA,23681-2199
Langley Research Center,Public,Compact Range Pilot Facility,1/1/1965,Active,,3/1/1996,2/25/2013,US,"37.08681, -76.376649",Hampton,VA,23681-2199
Langley Research Center,Public,Diode Characterization & Test Lab (B-1202),,Active,,12/6/2005,2/25/2013,US,"37.08681, -76.376649",Hampton,VA,23681-2199
Langley Research Center,Public,"Flight Simulation Facilities, B1268A and B1268D",,Active,,7/6/2009,2/15/2013,US,"37.08681, -76.376649",Hampton,VA,23681-2199
Langley Research Center,Public,Nozzle Test Chamber,1/1/1952,Active,,3/1/1996,2/25/2013,US,"37.08681, -76.376649",Hampton,VA,23681-2199
Langley Research Center,Public,Semi-Anecho Electromagnetic Comp Test Complex/B1220,1/1/1945,Active,,6/22/2006,2/25/2013,US,"37.08681, -76.376649",Hampton,VA,23681-2199
Langley Research Center,Public,Structures and Materials Lab,1/1/1940,Active,,3/1/1996,2/25/2013,US,"37.08681, -76.376649",Hampton,VA,23681-2199
Langley Research Center,Public,Intravehicular Automation and Robotics Lab,1/1/1945,Active,,3/1/1996,2/25/2013,US,"37.08681, -76.376649",Hampton,VA,23681-2199
Langley Research Center,Public,Nondestructive Evaluation Lab,1/1/1988,Active,,3/1/1996,2/25/2013,US,"37.08681, -76.376649",Hampton,VA,23681-2199
Langley Research Center,Public,Microelectronics Development Lab (B-1238A),,Active,,12/6/2005,2/25/2013,US,"37.08681, -76.376649",Hampton,VA,23681-2199
Langley Research Center,Public,Information Systems Research Facility (1),1/1/1945,Active,,3/1/1996,2/25/2013,US,"37.08681, -76.376649",Hampton,VA,23681-2199
Langley Research Center,Public,Automated Structures Assembly Lab,1/1/1945,Active,,3/1/1996,2/25/2013,US,"37.08681, -76.376649",Hampton,VA,23681-2199
Langley Research Center,Public,Composite Material Development Laboratory/B1238B,1/1/1978,Active,,3/1/1996,2/25/2013,US,"37.08681, -76.376649",Hampton,VA,23681-2199
Langley Research Center,Public,Materials Processing and Development Lab,1/1/1960,Active,,3/1/1996,2/19/2013,US,"37.08681, -76.376649",Hampton,VA,23681-2199
Langley Research Center,Public,Aircraft Landing Dynamics Facility/B1262,1/1/1956,Active,,3/1/1996,2/25/2013,US,"37.08681, -76.376649",Hampton,VA,23681-2199
Langley Research Center,Public,Electron Beam Welding Lab,1/1/1946,Active,,3/1/1996,2/15/2013,US,"37.08681, -76.376649",Hampton,VA,23681-2199
Langley Research Center,Public,Infrared Detector Calib & Charac Lab (B-1202),,Active,,12/6/2005,2/25/2013,US,"37.08681, -76.376649",Hampton,VA,23681-2199
Langley Research Center,Public,High Heat Flux Facility,1/1/1940,Active,,3/1/1996,2/19/2013,US,"37.08681, -76.376649",Hampton,VA,23681-2199
Langley Research Center,Public,Flight Systems Integration and Test Lab/B1250,1/1/1968,Active,,6/22/2006,2/25/2013,US,"37.08681, -76.376649",Hampton,VA,23681-2199
Langley Research Center,Public,Low Pressure Physics Laboratory,1/1/1965,Active,,3/1/1996,2/25/2013,US,"37.08681, -76.376649",Hampton,VA,23681-2199
Langley Research Center,Public,Information Systems Research Facility (2),1/1/1945,Active,,3/1/1996,2/25/2013,US,"37.08681, -76.376649",Hampton,VA,23681-2199
Langley Research Center,Public,16-Meter Thermal Vacuum Chamber,1/1/1963,Active,,3/1/1996,8/2/2012,US,"37.08681, -76.376649",Hampton,VA,23681-2199
Langley Research Center,Public,Low Turbulence Pressure Tunnel,1/1/1940,Inactive,http://ad-www.larc.nasa.gov/facility/photo_gallery,3/1/1996,2/25/2013,US,"37.08681, -76.376649",Hampton,VA,23681-2199
Langley Research Center,Public,Quality Assurance & Inspection Lab/1232A,1/1/1946,Active,,3/1/1996,2/25/2013,US,"37.08681, -76.376649",Hampton,VA,23681-2199
Langley Research Center,Public,Flight Research Facility,1/1/1951,Active,,3/1/1996,2/15/2013,US,"37.08681, -76.376649",Hampton,VA,23681-2199
Langley Research Center,Public,Ceramic & Glass Laboratory (B-1237A),1/1/1978,Active,,3/1/1996,2/13/2013,US,"37.08681, -76.376649",Hampton,VA,23681-2199
Langley Research Center,Public,Helicopter Hover Facility/647,1/1/1977,Active,,3/1/1996,2/15/2013,US,"37.08681, -76.376649",Hampton,VA,23681-2199
Langley Research Center,Public,Unitary Plan Wind Tunnel,1/1/1952,Active,http://www.aeronautics.nasa.gov/atp/index.html,3/1/1996,2/25/2013,US,"37.08681, -76.376649",Hampton,VA,23681-2199
Langley Research Center,Public,Hypersonic Propulsion Facility,1/1/1946,Active,,3/1/1996,2/15/2013,US,"37.08681, -76.376649",Hampton,VA,23681-2199
Langley Research Center,Public,Transonic Dynamics Tunnel,1/1/1960,Active,http://www.aeronautics.nasa.gov/atp/index.html,3/1/1996,2/25/2013,US,"37.08681, -76.376649",Hampton,VA,23681-2199
Langley Research Center,Public,Jet Noise Laboratory,1/1/1995,Active,,3/1/1996,2/25/2013,US,"37.08681, -76.376649",Hampton,VA,23681-2199
Langley Research Center,Public,Research Laboratory,1/1/1967,Active,,3/1/1996,2/25/2013,US,"37.08681, -76.376649",Hampton,VA,23681-2199
Langley Research Center,Public,National Transonic Facility,1/1/1982,Active,http://www.aeronautics.nasa.gov/atp/index.html,3/1/1996,2/25/2013,US,"37.08681, -76.376649",Hampton,VA,23681-2199
Langley Research Center,Public,Vibration Laboratory,,Active,http://engineering.larc.nasa.gov/vibration_lab.html,8/1/2012,8/1/2012,US,"37.08681, -76.376649",Hampton,VA,23681-2199
Langley Research Center,Public,Metal Technology Development Lab/1232A,1/1/1946,Active,,6/9/2006,2/25/2013,US,"37.08681, -76.376649",Hampton,VA,23681-2199
Langley Research Center,Public,Experimental Test Range,1/1/1990,Active,,3/1/1996,2/25/2013,US,"37.08681, -76.376649",Hampton,VA,23681-2199
Langley Research Center,Public,Productivity Enhancement Lab (B-1232A),1/1/1946,Active,,3/1/1996,2/25/2013,US,"37.08681, -76.376649",Hampton,VA,23681-2199
Langley Research Center,Public,Instrument Research Lab/1230,1/1/1946,Active,,3/1/1996,2/25/2013,US,"37.08681, -76.376649",Hampton,VA,23681-2199
Langley Research Center,Public,Intelligent Sys Res Lab/Hydrau Manipulator Testbed,1/1/1945,Active,,3/1/1996,2/25/2013,US,"37.08681, -76.376649",Hampton,VA,23681-2199
Marshall Space Flight Center,Public,Materials Testing & Research Facility 4464,,Active,,3/8/2007,3/31/2014,US,"34.729538, -86.585283",Huntsville,AL,35812
Marshall Space Flight Center,Public,ET Cryogenic Structural Test Facility 4699 ,,Active,,5/1/1996,3/31/2014,US,"34.729538, -86.585283",Huntsville,AL,35812
Marshall Space Flight Center,Public,ED Solid Rocket Engine Air Flow Fac 4777,1/1/1985,Active,,3/1/1996,6/2/2014,US,"34.729538, -86.585283",Huntsville,AL,35812
Marshall Space Flight Center,Public,EP Hydrocarbon (HC) Engine Test Fac 4696,1/1/1963,Inactive,,3/1/1996,3/31/2014,US,"34.729538, -86.585283",Huntsville,AL,35812
Marshall Space Flight Center,Public,Sun Spot Thermal Vacuum Chamber - 4619,,Active,,7/18/2010,2/20/2015,US,"34.729538, -86.585283",Huntsville,AL,35812
Marshall Space Flight Center,Public,EP Cold Flow Position 4670 ,1/1/1965,,,3/1/1996,3/31/2014,US,"34.729538, -86.585283",Huntsville,AL,35812
Marshall Space Flight Center,Public,EM SEE: Atomic Oxygen & Solar UV Lab 4711,,Active,,5/29/1996,6/2/2014,US,"34.729538, -86.585283",Huntsville,AL,35812
Marshall Space Flight Center,Public,EP Transient Pressure Test Facility 4515 ,1/1/1987,Inactive,,3/1/1996,3/31/2014,US,"34.729538, -86.585283",Huntsville,AL,35812
Marshall Space Flight Center,Public,ES Plasma Wind Tunnel 4481,1/1/1991,,,3/1/1996,3/31/2014,US,"34.729538, -86.585283",Huntsville,AL,35812
Marshall Space Flight Center,Public,EM-20 Terahertz Imaging Facility 4711,1/1/2003,Active,,8/4/2006,3/31/2014,US,"34.729538, -86.585283",Huntsville,AL,35812
Marshall Space Flight Center,Public,EH Foam Formulation Laboratory 4739,1/1/1956,Active,,3/1/1996,6/2/2014,US,"34.729538, -86.585283",Huntsville,AL,35812
Marshall Space Flight Center,Public,EM-20 Microwave NDE Facility 4702,,Active,,8/11/2006,6/2/2014,US,"34.729538, -86.585283",Huntsville,AL,35812
Marshall Space Flight Center,Public,"EM Mechanical Materials Test Facility, Bldg 4612",,Active,,8/8/2006,6/2/2014,US,"34.729538, -86.585283",Huntsville,AL,35812
Marshall Space Flight Center,Public,"X-Ray & Cryogenic Facility (XRCF), 4718",1/1/1991,Active,https://optics.nasa.gov,3/1/1996,2/20/2015,US,"34.729538, -86.585283",Huntsville,AL,35812
Marshall Space Flight Center,Public,EM Hydrogen (H2) Test Facility 4628,1/1/1961,Active,,3/1/1996,6/2/2014,US,"34.729538, -86.585283",Huntsville,AL,35812
Marshall Space Flight Center,Public,EH High Pres. Ignit. Promoted Combust.Test System,1/1/1960,Active,,3/1/1996,6/2/2014,US,"34.729538, -86.585283",Huntsville,AL,35812
Marshall Space Flight Center,Public,"AB Communications Facility, Bldg. 4207",1/1/1962,Active,,3/1/1996,6/2/2014,US,"34.729538, -86.585283",Huntsville,AL,35812
Marshall Space Flight Center,Public,EP Mechanisms Development Facility 4656 ,1/1/1965,,,3/1/1996,3/31/2014,US,"34.729538, -86.585283",Huntsville,AL,35812
Marshall Space Flight Center,Public,EB Radio Frequency Development Lab 4189,1/1/1957,Active,,3/1/1996,5/30/2014,US,"34.729538, -86.585283",Huntsville,AL,35812
Marshall Space Flight Center,Public,EH Robotic Welding Facility 4707,1/1/1956,Active,,3/1/1996,6/2/2014,US,"34.729538, -86.585283",Huntsville,AL,35812
Marshall Space Flight Center,Public,EP Test Facility (TF500) 4522 ,1/1/1966,Active,,3/1/1996,3/31/2014,US,"34.729538, -86.585283",Huntsville,AL,35812
Marshall Space Flight Center,Public,EP Data Recording Facility 4583 ,1/1/1957,Active,,3/1/1996,3/31/2014,US,"34.729538, -86.585283",Huntsville,AL,35812
Marshall Space Flight Center,Public,EH Computerized Data Base System 4612,1/1/1960,Active,,3/1/1996,6/2/2014,US,"34.729538, -86.585283",Huntsville,AL,35812
Marshall Space Flight Center,Public,EB LAB Control Moment Gyro Test & Eval Fac 4487,,Active,,6/11/1996,5/30/2014,US,"34.729538, -86.585283",Huntsville,AL,35812
Marshall Space Flight Center,Public,ET Component/System Quasi-Static Load Fac 4619,1/1/1959,Active,,4/25/1996,3/31/2014,US,"34.729538, -86.585283",Huntsville,AL,35812
Marshall Space Flight Center,Public,EV 400-Ft. Antenna Test Range 4194,1/1/1962,Active,,3/1/1996,3/31/2014,US,"34.729538, -86.585283",Huntsville,AL,35812
Marshall Space Flight Center,Public,EH Metals Processing Facility 4711,1/1/1958,Active,,3/1/1996,6/2/2014,US,"34.729538, -86.585283",Huntsville,AL,35812
Marshall Space Flight Center,Public,EM-20 Shearography Facility 4711,1/1/1992,Active,,8/4/2006,3/31/2014,US,"34.729538, -86.585283",Huntsville,AL,35812
Marshall Space Flight Center,Public,EB Straylight Facility 4487,1/1/1957,Active,,3/1/1996,5/30/2014,US,"34.729538, -86.585283",Huntsville,AL,35812
Marshall Space Flight Center,Public,EM-20 Contact Ultrasonics Laboratory 4702,,Active,,8/11/2006,6/2/2014,US,"34.729538, -86.585283",Huntsville,AL,35812
Marshall Space Flight Center,Public,EM-20 Thermography Facility 4711,1/1/1992,Active,,8/4/2006,3/31/2014,US,"34.729538, -86.585283",Huntsville,AL,35812
Marshall Space Flight Center,Public,EH Advanced Bonding Technology Laboratory 4707,1/1/1956,Active,,3/1/1996,5/30/2014,US,"34.729538, -86.585283",Huntsville,AL,35812
Marshall Space Flight Center,Public,ED Air Flow Turbine Test Facility 4777,1/1/1985,Active,,3/1/1996,5/30/2014,US,"34.729538, -86.585283",Huntsville,AL,35812
Marshall Space Flight Center,Public,ET WTC - 14-Inch Trisonic Wind Tunnel 4732,1/1/1968,Active,,3/1/1996,3/31/2014,US,"34.729538, -86.585283",Huntsville,AL,35812
Marshall Space Flight Center,Public,EB Doppler Lidar Facility 4467,1/1/1957,Active,,3/1/1996,5/30/2014,US,"34.729538, -86.585283",Huntsville,AL,35812
Marshall Space Flight Center,Public,ET East Vibration Test Facility 4619,,Active,,7/6/2010,3/31/2014,US,"34.729538, -86.585283",Huntsville,AL,35812
Marshall Space Flight Center,Public,ET WTC - Wind Tunnel Complex 4732,1/1/1968,Active,,3/1/1996,3/31/2014,US,"34.729538, -86.585283",Huntsville,AL,35812
Marshall Space Flight Center,Public,"EM Chemistry Laboratories, Building 4612",1/1/1957,Active,,3/1/1996,6/2/2014,US,"34.729538, -86.585283",Huntsville,AL,35812
Marshall Space Flight Center,Public,EH Robotic Workcell 4707,1/1/1956,Active,,3/1/1996,6/2/2014,US,"34.729538, -86.585283",Huntsville,AL,35812
Marshall Space Flight Center,Public,EH Plasma Arc Metal Cutting Facility 4738,1/1/1958,Active,,3/1/1996,6/2/2014,US,"34.729538, -86.585283",Huntsville,AL,35812
Marshall Space Flight Center,Public,ED Liquid Rocket Engine Air Flow Fac 4777,1/1/1985,Active,,3/1/1996,5/30/2014,US,"34.729538, -86.585283",Huntsville,AL,35812
Marshall Space Flight Center,Public,ET Hazardous Structural Test Complex 4572 ,,Active,,5/1/1996,3/31/2014,US,"34.729538, -86.585283",Huntsville,AL,35812
Marshall Space Flight Center,Public,ED Liquid/Solid Rocket Eng Water Flow Fac 4776,1/1/1985,Active,,3/1/1996,5/30/2014,US,"34.729538, -86.585283",Huntsville,AL,35812
Marshall Space Flight Center,Public,EV Flight Simulation Lab 4476 ,1/1/1963,Inactive,,3/1/1996,3/31/2014,US,"34.729538, -86.585283",Huntsville,AL,35812
Marshall Space Flight Center,Public,Neutral Buoyancy Facility 4705 ,1/1/1968,Inactive,,3/1/1996,3/31/2014,US,"34.729538, -86.585283",Huntsville,AL,35812
Marshall Space Flight Center,Public,ES Solar Magnetograph Facility 4347 ,1/1/1950,,,3/1/1996,3/31/2014,US,"34.729538, -86.585283",Huntsville,AL,35812
Marshall Space Flight Center,Public,EM Space Environmental Effects Facility 4605,1/1/1970,Active,,3/1/1996,6/2/2014,US,"34.729538, -86.585283",Huntsville,AL,35812
Marshall Space Flight Center,Public,"EM-20 Penetrant, Optical and Magnetic Particle Lab",,Active,,8/11/2006,6/2/2014,US,"34.729538, -86.585283",Huntsville,AL,35812
Marshall Space Flight Center,Public,18-Ft Vacuum Coating Chamber - 4707,,Inactive,,7/16/2010,2/20/2015,US,"34.729538, -86.585283",Huntsville,AL,35812
Marshall Space Flight Center,Public,"EM Bearing Test Facility, Bldg 4711",1/1/1960,Active,,5/14/1996,6/2/2014,US,"34.729538, -86.585283",Huntsville,AL,35812
Marshall Space Flight Center,Public,ET Modal Test Facility 4619,,Active,,4/25/1996,3/31/2014,US,"34.729538, -86.585283",Huntsville,AL,35812
Marshall Space Flight Center,Public,EV Flight Robotics Laboratory (Flat Floor) 4619,1/1/1983,Active,,6/3/1996,3/31/2014,US,"34.729538, -86.585283",Huntsville,AL,35812
Marshall Space Flight Center,Public,EH Hazardous Tribological Test Facility 4643,1/1/1960,Active,,3/1/1996,6/2/2014,US,"34.729538, -86.585283",Huntsville,AL,35812
Marshall Space Flight Center,Public,ED Pump Test Equipment Facility 4777,1/1/1995,Active,,5/30/1996,5/30/2014,US,"34.729538, -86.585283",Huntsville,AL,35812
Marshall Space Flight Center,Public,EB Electrical Power Systems Test Fac 4475,1/1/1964,Active,,3/1/1996,5/30/2014,US,"34.729538, -86.585283",Huntsville,AL,35812
Marshall Space Flight Center,Public,"EM Long-Duration Lubricant Test Laboratory, Bldg 4",,Active,,8/9/2006,6/2/2014,US,"34.729538, -86.585283",Huntsville,AL,35812
Marshall Space Flight Center,Public,EM-20 Computed Tomography Facility 4707,1/1/1985,Active,,3/1/1996,6/2/2014,US,"34.729538, -86.585283",Huntsville,AL,35812
Marshall Space Flight Center,Public,Cosmic Ray Emulsion Laboratory 4481,1/1/1991,Inactive,,3/1/1996,5/30/2014,US,"34.729538, -86.585283",Huntsville,AL,35812
Marshall Space Flight Center,Public,EO UDC/ Express Rack/ Express Pallet 4612,1/1/1988,Under Rehabilitation,,5/29/1996,3/31/2014,US,"34.729538, -86.585283",Huntsville,AL,35812
Marshall Space Flight Center,Public,EV Contact Dynamics Simulation Lab (6DOF) 4663,1/1/1980,Active,,3/1/1996,3/31/2014,US,"34.729538, -86.585283",Huntsville,AL,35812
Marshall Space Flight Center,Public,EH Metallurgical Diagnostics Laboratory 4612,1/1/1961,Active,,3/1/1996,6/2/2014,US,"34.729538, -86.585283",Huntsville,AL,35812
Marshall Space Flight Center,Public,ET Flight Environmental Test Facility 4619,1/1/1962,Active,,3/1/1996,2/26/2015,US,"34.729538, -86.585283",Huntsville,AL,35812
Marshall Space Flight Center,Public,ET Dynamics Test Stand (4550),,Inactive,,8/11/2006,3/31/2014,US,"34.729538, -86.585283",Huntsville,AL,35812
Marshall Space Flight Center,Public,EH Sheet Metal Assembly & Machine Shop 4705,1/1/1958,Active,,3/1/1996,6/2/2014,US,"34.729538, -86.585283",Huntsville,AL,35812
Marshall Space Flight Center,Public,EB LAB Anechoic Test Chamber 4190,1/1/1965,Active,,6/10/1996,5/30/2014,US,"34.729538, -86.585283",Huntsville,AL,35812
Marshall Space Flight Center,Public,ET West Vibration Test Facility 4619,,Active,,4/25/1996,3/31/2014,US,"34.729538, -86.585283",Huntsville,AL,35812
Marshall Space Flight Center,Public,Subscale Rocket Motor Processing Fac 4707,1/1/1956,Active,,3/1/1996,3/31/2014,US,"34.729538, -86.585283",Huntsville,AL,35812
Marshall Space Flight Center,Public,"EM Materials Combustion Research Facility, Bldg 46",,Active,,8/9/2006,6/2/2014,US,"34.729538, -86.585283",Huntsville,AL,35812
Marshall Space Flight Center,Public,EM-20 Backscatter Radiography Facility 4711/4707,1/1/2002,Active,,8/4/2006,6/2/2014,US,"34.729538, -86.585283",Huntsville,AL,35812
Marshall Space Flight Center,Public,EM-20 Acoustic Emission Facility 4711,1/1/1992,Active,,8/4/2006,6/2/2014,US,"34.729538, -86.585283",Huntsville,AL,35812
Marshall Space Flight Center,Public,EH Ambient & High Pressure LOX/GOX Facility 4623,1/1/1960,Active,,3/1/1996,5/30/2014,US,"34.729538, -86.585283",Huntsville,AL,35812
Marshall Space Flight Center,Public,"EM Tribology Test Laboratory, Building 4711",1/1/1960,Active,,3/1/1996,6/2/2014,US,"34.729538, -86.585283",Huntsville,AL,35812
Marshall Space Flight Center,Public,EB Marshall Avionics Sys. Testbed (MAST) 4487,1/1/1963,Active,,3/1/1996,5/30/2014,US,"34.729538, -86.585283",Huntsville,AL,35812
Marshall Space Flight Center,Public,EM-20 Automated Ultrasonics Laboratory 4702,,Active,,8/11/2006,6/2/2014,US,"34.729538, -86.585283",Huntsville,AL,35812
Marshall Space Flight Center,Public,EH High-Temperature Heat Treating Fac 4767,1/1/1958,Active,,3/1/1996,6/2/2014,US,"34.729538, -86.585283",Huntsville,AL,35812
Marshall Space Flight Center,Public,Low Gravity Materials Science Facility 4550,1/1/1991,Inactive,,3/1/1996,3/31/2014,US,"34.729538, -86.585283",Huntsville,AL,35812
Marshall Space Flight Center,Public,EV Battery Test Laboratory 4475 ,1/1/1964,Active,,3/1/1996,3/31/2014,US,"34.729538, -86.585283",Huntsville,AL,35812
Marshall Space Flight Center,Public,EB Precision Optical Facility 4487,1/1/1968,Active,,3/1/1996,5/30/2014,US,"34.729538, -86.585283",Huntsville,AL,35812
Marshall Space Flight Center,Public,EM-20 Film Radiography Facility 4702,,Active,,8/11/2006,6/2/2014,US,"34.729538, -86.585283",Huntsville,AL,35812
Marshall Space Flight Center,Public,EH Non-Optical NDE Facility 4702,,Active,,5/28/1996,6/2/2014,US,"34.729538, -86.585283",Huntsville,AL,35812
Marshall Space Flight Center,Public,EM-20 Digital X-ray Laminography 4711,1/1/2006,Active,,8/4/2006,6/2/2014,US,"34.729538, -86.585283",Huntsville,AL,35812
Marshall Space Flight Center,Public,ES BATSE Operations & Data Analysis Lab 4481,1/1/1990,Active,,3/1/1996,3/31/2014,US,"34.729538, -86.585283",Huntsville,AL,35812
Marshall Space Flight Center,Public,EO Huntsville Operations Support Center 4663,1/1/1959,Active,http://ed.msfc.nasa.gov/edinside/eo,3/1/1996,3/31/2014,US,"34.729538, -86.585283",Huntsville,AL,35812
Marshall Space Flight Center,Public,EH Hazardous Machining Facility 4759,1/1/1958,Active,,3/1/1996,6/2/2014,US,"34.729538, -86.585283",Huntsville,AL,35812
Marshall Space Flight Center,Public,EL Systems and Payloads Test Facilities 4708,1/1/1958,Active,,3/1/1996,6/2/2014,US,"34.729538, -86.585283",Huntsville,AL,35812
Marshall Space Flight Center,Public,Composites Development Facility 4707,1/1/1956,Active,,3/1/1996,5/30/2014,US,"34.729538, -86.585283",Huntsville,AL,35812
Marshall Space Flight Center,Public,Vacuum Drop Tube Facility 4550 ,1/1/1965,Inactive,,3/1/1996,3/31/2014,US,"34.729538, -86.585283",Huntsville,AL,35812
Marshall Space Flight Center,Public,EI Manned Habitat ECLSS Test Facility 4755,1/1/1985,Active,,5/17/1996,6/2/2014,US,"34.729538, -86.585283",Huntsville,AL,35812
Marshall Space Flight Center,Public,"EM Environmental Gas/Toxic Offgassing Lab, Bldg 46",1/1/1960,Active,,3/1/1996,6/2/2014,US,"34.729538, -86.585283",Huntsville,AL,35812
Marshall Space Flight Center,Public,EL Ground Control Experiment Laboratory 4708,1/1/1958,Active,,3/1/1996,6/2/2014,US,"34.729538, -86.585283",Huntsville,AL,35812
Marshall Space Flight Center,Public,EH Frictional Heating Test System 4623,1/1/1960,Active,,3/1/1996,6/2/2014,US,"34.729538, -86.585283",Huntsville,AL,35812
Marshall Space Flight Center,Public,EH Inert Propellant Development Lab 4767,1/1/1960,Active,,3/1/1996,6/2/2014,US,"34.729538, -86.585283",Huntsville,AL,35812
Marshall Space Flight Center,Public,EP Hot Gas Test Facility 4554 ,1/1/1976,,,3/1/1996,3/31/2014,US,"34.729538, -86.585283",Huntsville,AL,35812
Marshall Space Flight Center,Public,ES Laboratory for Structural Biology 4484 ,1/1/1994,,,3/1/1996,3/31/2014,US,"34.729538, -86.585283",Huntsville,AL,35812
Marshall Space Flight Center,Public,EH Mechanical & Corrosion Testing 4612,1/1/1961,Active,,3/1/1996,6/2/2014,US,"34.729538, -86.585283",Huntsville,AL,35812
Marshall Space Flight Center,Public,EP Test Facility (TF116) 4540,1/1/1964,Active,http://rockettest.nasa.gov,3/1/1996,3/31/2014,US,"34.729538, -86.585283",Huntsville,AL,35812
Marshall Space Flight Center,Public,EV LAB 1/2 Mile Antenna Test Range 4194 ,1/1/1976,Active,,3/1/1996,3/31/2014,US,"34.729538, -86.585283",Huntsville,AL,35812
Marshall Space Flight Center,Public,Filament Winding Lab 4707 ,1/1/1956,Active,,3/1/1996,3/31/2014,US,"34.729538, -86.585283",Huntsville,AL,35812
Marshall Space Flight Center,Public,EB Solar Array Test Facility 4475,1/1/1964,Active,,3/1/1996,5/30/2014,US,"34.729538, -86.585283",Huntsville,AL,35812
Marshall Space Flight Center,Public,EH Vacuum Plasma Spray Facility 4707,1/1/1956,Active,,3/1/1996,6/2/2014,US,"34.729538, -86.585283",Huntsville,AL,35812
Marshall Space Flight Center,Public,EH SRB-TPS (Thermal Protection Sys) Dev. 470,1/1/1956,Active,,3/1/1996,6/2/2014,US,"34.729538, -86.585283",Huntsville,AL,35812
Marshall Space Flight Center,Public,Propulsion Research and Development Laboratory,1/1/2005,Active,,8/10/2006,3/31/2014,US,"34.729538, -86.585283",Huntsville,AL,35812
Marshall Space Flight Center,Public,EH Ceramics Coatings & High Temp Mat.Lab 4612,1/1/1960,Active,,3/1/1996,6/2/2014,US,"34.729538, -86.585283",Huntsville,AL,35812
Marshall Space Flight Center,Public,EH Environmental Replacement Tech. Lab 4707,1/1/1956,Active,,3/1/1996,6/2/2014,US,"34.729538, -86.585283",Huntsville,AL,35812
Marshall Space Flight Center,Public,EI Space Systems Integration and Test Facility 4,1/1/1992,Active,,3/1/1996,6/2/2014,US,"34.729538, -86.585283",Huntsville,AL,35812
Marshall Space Flight Center,Public,ET Acoustic Test Facility 4619,1/1/1959,Active,,3/1/1996,3/31/2014,US,"34.729538, -86.585283",Huntsville,AL,35812
Marshall Space Flight Center,Public,ES Dist Active Archive Center 917 Expl. Blvd.,1/1/1991,,,3/1/1996,3/31/2014,US,"34.729538, -86.585283",Huntsville,AL,35812
Marshall Space Flight Center,Public,ES Earth Science & Appl.Computer Facility 4492,1/1/1991,,,3/1/1996,3/31/2014,US,"34.729538, -86.585283",Huntsville,AL,35812
Marshall Space Flight Center,Public,EP Test Cells 4583 ,1/1/1957,Active,,3/1/1996,3/31/2014,US,"34.729538, -86.585283",Huntsville,AL,35812
Marshall Space Flight Center,Public,EM-20 Phased Array Ultrasonic Laboratory 4702,,Active,,8/11/2006,6/2/2014,US,"34.729538, -86.585283",Huntsville,AL,35812
Marshall Space Flight Center,Public,"EM Impact Testing Facility 4571, 4612",1/1/2005,Active,,8/4/2006,6/2/2014,US,"34.729538, -86.585283",Huntsville,AL,35812
Marshall Space Flight Center,Public,EH Surface Treatment Facility 4760,1/1/1960,Active,,3/1/1996,6/2/2014,US,"34.729538, -86.585283",Huntsville,AL,35812
Marshall Space Flight Center,Public,ET Test Facility (TS300) 4530,1/1/1966,Active,,6/5/1996,2/26/2015,US,"34.729538, -86.585283",Huntsville,AL,35812
Marshall Space Flight Center,Public,"EM Metrology Laboratory, Building 4711",,Active,,8/9/2006,6/2/2014,US,"34.729538, -86.585283",Huntsville,AL,35812
Marshall Space Flight Center,Public,EH Heat Treat Shop 4704,1/1/1958,Active,,3/1/1996,6/2/2014,US,"34.729538, -86.585283",Huntsville,AL,35812
Marshall Space Flight Center,Public,EI MSFC Electromagnetic Interference (EMI) Test Fa,1/1/1995,Active,,3/1/1996,6/2/2014,US,"34.729538, -86.585283",Huntsville,AL,35812
Marshall Space Flight Center,Public,ET Structural Dynamics Control Facility 4619,,Active,,5/1/1996,3/31/2014,US,"34.729538, -86.585283",Huntsville,AL,35812
Marshall Space Flight Center,Public,ES Low Energy Ion Facility 4481 ,1/1/1974,Active,,3/1/1996,3/31/2014,US,"34.729538, -86.585283",Huntsville,AL,35812
Marshall Space Flight Center,Public,ET Pyrotechnic Shock Test Facility 4619,,Active,,4/25/1996,3/31/2014,US,"34.729538, -86.585283",Huntsville,AL,35812
Marshall Space Flight Center,Public,EP Propulsion Technology Test Facility 4670,1/1/1965,,,3/1/1996,3/31/2014,US,"34.729538, -86.585283",Huntsville,AL,35812
Marshall Space Flight Center,Public,EH Spray-On Foam Insulation (SOFI) Lab 4707,1/1/1956,Active,,3/1/1996,6/2/2014,US,"34.729538, -86.585283",Huntsville,AL,35812
Marshall Space Flight Center,Public,ED Coldflow R & D Test Complex 4776,1/1/1985,Active,,3/1/1996,5/30/2014,US,"34.729538, -86.585283",Huntsville,AL,35812
Marshall Space Flight Center,Public,EP Solid Propulsion Test Facility 4520,,Active,,3/1/1996,3/31/2014,US,"34.729538, -86.585283",Huntsville,AL,35812
Marshall Space Flight Center,Public,EP Data Recording and Control Facility 4674 ,1/1/1964,Active,,3/1/1996,3/31/2014,US,"34.729538, -86.585283",Huntsville,AL,35812
Marshall Space Flight Center,Public,EH Computer Aided Design (CAD)Room 4708,1/1/1989,Active,,5/29/1996,6/2/2014,US,"34.729538, -86.585283",Huntsville,AL,35812
Marshall Space Flight Center,Public,EM Electrostatic Levitator Materials Characterizat,,Active,,8/4/2006,6/2/2014,US,"34.729538, -86.585283",Huntsville,AL,35812
Marshall Space Flight Center,Public,EH Rubber Fabrication Laboratory 4612,1/1/1960,Active,,3/1/1996,6/2/2014,US,"34.729538, -86.585283",Huntsville,AL,35812
Marshall Space Flight Center,Public,EH Low Pressure Flammability Test Sys. 4623,1/1/1960,Active,,3/1/1996,6/2/2014,US,"34.729538, -86.585283",Huntsville,AL,35812
Marshall Space Flight Center,Public,"EV Engine Hardware Simulation Laboratory, 4436",1/1/1988,Active,,3/1/1996,3/31/2014,US,"34.729538, -86.585283",Huntsville,AL,35812
Marshall Space Flight Center,Public,EM Contamination Control Laboratories 4711,,Active,,5/29/1996,6/2/2014,US,"34.729538, -86.585283",Huntsville,AL,35812
Marshall Space Flight Center,Public,Stray Light Vacuum Chamber Facility 4487,,Active,,7/17/2010,3/31/2014,US,"34.729538, -86.585283",Huntsville,AL,35812
Marshall Space Flight Center,Public,V20 Thermal Vacuum Chamber - 4619,,Active,,7/18/2010,2/20/2015,US,"34.729538, -86.585283",Huntsville,AL,35812
Marshall Space Flight Center,Public,Fiber Placement Fac 4707 ,1/1/1956,Active,,3/1/1996,3/31/2014,US,"34.729538, -86.585283",Huntsville,AL,35812
Marshall Space Flight Center,Public,ED Water Flow Inducer Test Loop 4777,1/1/1985,Active,,3/1/1996,5/30/2014,US,"34.729538, -86.585283",Huntsville,AL,35812
Marshall Space Flight Center,Public,ET Large Structure Quasi-Static Load Fac 4619,,Active,,4/25/1996,3/31/2014,US,"34.729538, -86.585283",Huntsville,AL,35812
Marshall Space Flight Center,Public,EB Audio Reverberant Facility 4477,1/1/1991,Active,,3/1/1996,5/30/2014,US,"34.729538, -86.585283",Huntsville,AL,35812
Michoud Assembly Facility,Public,Riveting Facility,1/1/1943,Active,http://mafbusiness.msfc.nasa.gov/,2/9/2009,2/19/2013,US,"29.950621, -90.074948",New Orleans,LA,70189
Michoud Assembly Facility,Public,High Bay Facility,1/1/1982,Active,http://mafbusiness.msfc.nasa.gov/,2/3/2009,2/19/2013,US,"29.950621, -90.074948",New Orleans,LA,70189
Michoud Assembly Facility,Public,Friction Stir Welding Facility,1/1/1943,Active,http://mafbusiness.msfc.nasa.gov/,2/9/2009,2/19/2013,US,"29.950621, -90.074948",New Orleans,LA,70189
Michoud Assembly Facility,Public,Vertical Assembly Facility,1/1/1963,Active,http://mafbusiness.msfc.nasa.gov/,2/3/2009,2/19/2013,US,"29.950621, -90.074948",New Orleans,LA,70189
Michoud Assembly Facility,Public,Component Painting Facility,,Active,http://mafbusiness.msfc.nasa.gov/,2/2/2009,2/19/2013,US,"29.950621, -90.074948",New Orleans,LA,70189
Michoud Assembly Facility,Public,Harness Fabrication Facility,1/1/1943,Active,http://mafbusiness.msfc.nasa.gov/,2/2/2009,2/19/2013,US,"29.950621, -90.074948",New Orleans,LA,70189
Michoud Assembly Facility,Public,Heat Treating Facility,1/1/1943,Active,http://mafbusiness.msfc.nasa.gov/,2/2/2009,2/19/2013,US,"29.950621, -90.074948",New Orleans,LA,70189
Michoud Assembly Facility,Public,Chemical Cleaning Facility,1/1/1943,Active,http://mafbusiness.msfc.nasa.gov/,1/28/2009,2/19/2013,US,"29.950621, -90.074948",New Orleans,LA,70189
Michoud Assembly Facility,Public,Component Ablator Facility SLA Spray Preparation Area,1/1/1985,Active,http://mafbusiness.msfc.nasa.gov/,4/6/2009,2/19/2013,US,"29.950621, -90.074948",New Orleans,LA,70189
Michoud Assembly Facility,Public,Thermal Protection System Area,1/1/1963,Active,http://mafbusiness.msfc.nasa.gov/,4/6/2009,2/19/2013,US,"29.950621, -90.074948",New Orleans,LA,70189
Michoud Assembly Facility,Public,Component Ablator Facility Mix Room,1/1/1985,Active,http://mafbusiness.msfc.nasa.gov/,4/6/2009,2/19/2013,US,"29.950621, -90.074948",New Orleans,LA,70189
Michoud Assembly Facility,Public,Precision Cleaning Facility,1/1/1943,Active,http://mafbusiness.msfc.nasa.gov/,2/3/2009,2/19/2013,US,"29.950621, -90.074948",New Orleans,LA,70189
Michoud Assembly Facility,Public,Machine Shop Facility,1/1/1943,Active,http://mafbusiness.msfc.nasa.gov/,2/2/2009,2/19/2013,US,"29.950621, -90.074948",New Orleans,LA,70189
Michoud Assembly Facility,Public,Port Michoud Facility,1/1/1963,Active,http://mafbusiness.msfc.nasa.gov/,1/29/2009,2/19/2013,US,"29.950621, -90.074948",New Orleans,LA,70189
Michoud Assembly Facility,Public,LH2 Ablator Spray Facility,1/1/1980,Active,http://mafbusiness.msfc.nasa.gov/,4/6/2009,2/19/2013,US,"29.950621, -90.074948",New Orleans,LA,70189
Michoud Assembly Facility,Public,Major Component Cleaning Facility,1/1/1943,Inactive,http://mafbusiness.msfc.nasa.gov/,2/2/2009,2/19/2013,US,"29.950621, -90.074948",New Orleans,LA,70189
Michoud Assembly Facility,Public,Component Ablator Facility SLA Spray Room,1/1/1985,Active,http://mafbusiness.msfc.nasa.gov/,4/7/2009,2/19/2013,US,"29.950621, -90.074948",New Orleans,LA,70189
NASA Aircraft Management Division,Public,GRC S-3B Viking Research Aircraft,,Active,,11/4/2009,7/22/2013,US,"38.883239, -77.016473",Washington,DC,20546
NASA Aircraft Management Division,Public,GRC DHC-6 Twin Otter Research Aircraft,,Active,http://icebox-esn.grc.nasa.gov/facilities/otter.html,11/4/2009,7/22/2013,US,"38.883239, -77.016473",Washington,DC,20546
NASA Aircraft Management Division,Public,GRC Learjet 25 Research Aircraft,,Active,,11/4/2009,7/22/2013,US,"38.883239, -77.016473",Washington,DC,20546
NASA Aircraft Management Division,Public,DFRC Stratospheric Observatory for Infrared Astronomy (SOFIA) Aircraft,,Active,http://www.nasa.gov/centers/dryden/news/FactSheets/FS-096-DFRC.html,10/7/2009,2/13/2013,US,"38.883239, -77.016473",Washington,DC,20546
NASA Aircraft Management Division,Public,DFRC RQ-4 Global Hawk Unmanned Aerial System,,Active,http://www.nasa.gov/centers/dryden/aircraft/GlobalHawk/index.html,10/7/2009,2/13/2013,US,"38.883239, -77.016473",Washington,DC,20546
NASA Aircraft Management Division,Public,DFRC Ikhana (Predator B) Unmanned Aerial System,,Active,http://www.nasa.gov/centers/dryden/aircraft/Ikhana/index.html,10/7/2009,2/13/2013,US,"38.883239, -77.016473",Washington,DC,20546
NASA Aircraft Management Division,Public,JSC B-377G Super Guppy Support Aircraft,,Active,http://jsc-aircraft-ops.jsc.nasa.gov/guppy/index.html,11/4/2009,7/22/2013,US,"38.883239, -77.016473",Washington,DC,20546
NASA Aircraft Management Division,Public,LaRC Lancair Columbia 300 Research Aircraft,,Inactive,,11/4/2009,2/13/2013,US,"38.883239, -77.016473",Washington,DC,20546
NASA Aircraft Management Division,Public,LaRC Cirrus SR-22 Research Aircraft,,Active,,11/4/2009,7/22/2013,US,"38.883239, -77.016473",Washington,DC,20546
NASA Aircraft Management Division,Public,DFRC DC-8 Earth Science Research Aircraft,,Active,http://www.nasa.gov/centers/dryden/aircraft/DC-8/index.html,10/7/2009,2/13/2013,US,"38.883239, -77.016473",Washington,DC,20546
NASA Aircraft Management Division,Public,LaRC B-200 Super King Air Research Aircraft,,Active,,11/4/2009,7/22/2013,US,"38.883239, -77.016473",Washington,DC,20546
NASA Aircraft Management Division,Public,JSC WB-57 High Altitude Research Aircraft,,Active,http://jsc-aircraft-ops.jsc.nasa.gov/wb57/index.html,11/4/2009,7/22/2013,US,"38.883239, -77.016473",Washington,DC,20546
NASA Aircraft Management Division,Public,WFF P-3B Research Aircraft,,Active,http://wacop.wff.nasa.gov/LAAPBDesc.cfm,11/4/2009,2/13/2013,US,"38.883239, -77.016473",Washington,DC,20546
NASA Aircraft Management Division,Public,DFRC F-15B/D Research Aircraft,,Active,http://www.nasa.gov/centers/dryden/aircraft/F-15B/index.html,11/4/2009,2/13/2013,US,"38.883239, -77.016473",Washington,DC,20546
NASA Aircraft Management Division,Public,DFRC B-200 Super Kingair Research/Support Aircraft,,Active,http://www.nasa.gov/centers/dryden/aircraft/KingAir/index.html,11/4/2009,2/13/2013,US,"38.883239, -77.016473",Washington,DC,20546
NASA Aircraft Management Division,Public,LaRC Cessna 206 Stationair Research Aircraft,,Active,,11/4/2009,7/22/2013,US,"38.883239, -77.016473",Washington,DC,20546
NASA Aircraft Management Division,Public,DFRC ER-2 High Altitude Research Aircraft,,Active,http://www.nasa.gov/centers/dryden/aircraft/ER-2/index.html,9/8/2009,2/13/2013,US,"38.883239, -77.016473",Washington,DC,20546
NASA Aircraft Management Division,Public,DFRC Gulfstream G-III Research Aircraft,,Active,http://www.nasa.gov/centers/dryden/aircraft/G-III_UAVSAR/index.html,10/7/2009,2/13/2013,US,"38.883239, -77.016473",Washington,DC,20546
NASA Aircraft Management Division,Public,WFF C-23 Sherpa Airborne Research Aircraft,,Active,http://airbornescience.nasa.gov/aircraft/C-23_Sherpa,2/13/2013,,US,"38.883239, -77.016473",Washington,DC,20546
NASA Aircraft Management Division,Public,LaRC HU-25C Falcon Research Aircraft,,Active,http://airbornescience.nasa.gov/aircraft/HU-25C_Falcon,7/22/2013,,US,"38.883239, -77.016473",Washington,DC,20546
NASA Aircraft Management Division,Public,ARC Scientific Instrumentation Evaluation Remote Research Aircraft (SIERRA),,Active,,11/4/2009,7/22/2013,US,"38.883239, -77.016473",Washington,DC,20546
NASA Aircraft Management Division,Public,DFRC F/A-18 Research Aircraft,,Active,http://www.nasa.gov/centers/dryden/aircraft/F-18_853/index.html,11/4/2009,2/13/2013,US,"38.883239, -77.016473",Washington,DC,20546
NASA Aircraft Management Division,Public,LaRC OV-10G Research Aircraft,,Inactive,,11/4/2009,2/13/2013,US,"38.883239, -77.016473",Washington,DC,20546
Stennis Space Center,Public,Test Stand A-2 #4122,1/1/1964,Inactive,http://rockettest.nasa.gov,3/1/1996,4/6/2015,US,"30.385948, -89.604486",Stennis Space Center,MS,39529-6000
Stennis Space Center,Public,Push Boat,1/1/1965,Active,http://rockettest.nasa.gov,3/1/1996,4/6/2015,US,"30.385948, -89.604486",Stennis Space Center,MS,39529-6000
Stennis Space Center,Public,Test Operations Bldg. E Complex #4010,1/1/1991,Active,http://rockettest.nasa.gov,3/1/1996,4/6/2015,US,"30.385948, -89.604486",Stennis Space Center,MS,39529-6000
Stennis Space Center,Public,"Barge, Liquid Oxygen (6 each)",1/1/1965,Active,http://rockettest.nasa.gov,3/1/1996,4/6/2015,US,"30.385948, -89.604486",Stennis Space Center,MS,39529-6000
Stennis Space Center,Public,Sensor Laboratory #1105,1/1/1966,Active,,3/1/1996,4/6/2015,US,"30.385948, -89.604486",Stennis Space Center,MS,39529-6000
Stennis Space Center,Public,Test Facility H-1 #5001,1/1/1995,Inactive,,3/1/1996,4/6/2015,US,"30.385948, -89.604486",Stennis Space Center,MS,39529-6000
Stennis Space Center,Public,A Complex Test Control Center (TCC) #4110,1/1/1966,Active,,3/1/1996,4/6/2015,US,"30.385948, -89.604486",Stennis Space Center,MS,39529-6000
Stennis Space Center,Public,Measurement Standards & Calibration Lab #8100,1/1/1966,Active,,3/1/1996,4/6/2015,US,"30.385948, -89.604486",Stennis Space Center,MS,39529-6000
Stennis Space Center,Public,Hydrogen Transfer Facility #3415,1/1/1965,Active,http://rockettest.nasa.gov,3/1/1996,4/6/2015,US,"30.385948, -89.604486",Stennis Space Center,MS,39529-6000
Stennis Space Center,Public,Emergency Power Generating System #4400,1/1/1966,Active,http://rockettest.nasa.gov,3/1/1996,4/6/2015,US,"30.385948, -89.604486",Stennis Space Center,MS,39529-6000
Stennis Space Center,Public,"High Pressure Gas Facility #0041,3305,6,9,10,11",1/1/1966,Active,http://rockettest.nasa.gov,3/1/1996,4/6/2015,US,"30.385948, -89.604486",Stennis Space Center,MS,39529-6000
Stennis Space Center,Public,B Complex Test Control Center (TCC) #4210,1/1/1966,Active,http://rockettest.nasa.gov,3/1/1996,4/6/2015,US,"30.385948, -89.604486",Stennis Space Center,MS,39529-6000
Stennis Space Center,Public,Test Stand B-1 #4220,1/1/1965,Active,http://rockettest.nasa.gov,3/1/1996,4/6/2015,US,"30.385948, -89.604486",Stennis Space Center,MS,39529-6000
Stennis Space Center,Public,Data Acquisition Facility (DAF) #4995,1/1/1966,Active,http://rockettest.nasa.gov,3/1/1996,4/6/2015,US,"30.385948, -89.604486",Stennis Space Center,MS,39529-6000
Stennis Space Center,Public,Test Stand B-2 #4221,1/1/1965,Under Rehabilitation,http://rockettest.nasa.gov,12/11/2000,4/6/2015,US,"30.385948, -89.604486",Stennis Space Center,MS,39529-6000
Stennis Space Center,Public,Cryogenics Docks #0008,1/1/1965,Active,http://rockettest.nasa.gov,3/1/1996,4/6/2015,US,"30.385948, -89.604486",Stennis Space Center,MS,39529-6000
Stennis Space Center,Public,"Barge, Liquid Hydrogen (3 each)",1/1/1965,Active,http://rockettest.nasa.gov,3/1/1996,4/6/2015,US,"30.385948, -89.604486",Stennis Space Center,MS,39529-6000
Stennis Space Center,Public,Science Laboratory #8110,1/1/1966,Active,,3/1/1996,4/6/2015,US,"30.385948, -89.604486",Stennis Space Center,MS,39529-6000
Stennis Space Center,Public,Test Stand A-1 #4120,1/1/1967,Active,http://rockettest.nasa.gov,3/1/1996,4/6/2015,US,"30.385948, -89.604486",Stennis Space Center,MS,39529-6000
Stennis Space Center,Public,High Pressure Industrial Water Plant #4400,1/1/1966,Active,http://rockettest.nasa.gov,3/1/1996,4/6/2015,US,"30.385948, -89.604486",Stennis Space Center,MS,39529-6000
Stennis Space Center,Public,Electrical Distribution System #0010,1/1/1964,Active,http://rockettest.nasa.gov,3/1/1996,4/6/2015,US,"30.385948, -89.604486",Stennis Space Center,MS,39529-6000
Stennis Space Center,Public,Test Facility E-1 #4050,1/1/1992,Active,http://rockettest.nasa.gov,3/1/1996,4/6/2015,US,"30.385948, -89.604486",Stennis Space Center,MS,39529-6000
Stennis Space Center,Public,Propellant Transfer & Storage Facility #3414,1/1/1965,Active,http://rockettest.nasa.gov,3/1/1996,4/6/2015,US,"30.385948, -89.604486",Stennis Space Center,MS,39529-6000
Stennis Space Center,Public,Engine Processing Building #3202,1/1/1965,Inactive,http://rockettest.nasa.gov,3/1/1996,4/6/2015,US,"30.385948, -89.604486",Stennis Space Center,MS,39529-6000
Stennis Space Center,Public,"Repair, Fab. & Fluid Component Proc. #2201,2205,5A",1/1/1964,Active,,3/1/1996,4/6/2015,US,"30.385948, -89.604486",Stennis Space Center,MS,39529-6000
Stennis Space Center,Public,Test Facility E-2 #4001,1/1/1994,Active,http://rockettest.nasa.gov,3/1/1996,4/6/2015,US,"30.385948, -89.604486",Stennis Space Center,MS,39529-6000
Stennis Space Center,Public,Test Facility E-3 #4071,,Active,http://rockettest.nasa.gov,12/11/2000,4/6/2015,US,"30.385948, -89.604486",Stennis Space Center,MS,39529-6000
Stennis Space Center,Public,Industrial Water Reservoir #4325,1/1/1966,Active,http://rockettest.nasa.gov,3/1/1996,4/6/2015,US,"30.385948, -89.604486",Stennis Space Center,MS,39529-6000
Stennis Space Center,Public,"Canals, Lock & Dock System #0036,2310,2311,2317",1/1/1966,Active,http://rockettest.nasa.gov,3/1/1996,4/6/2015,US,"30.385948, -89.604486",Stennis Space Center,MS,39529-6000
Wallops Flight Facility/GSFC,Public,Meteorological Facilities and ASRF,1/1/1959,Active,http://www.nasa.gov/centers/wallops,3/1/1996,7/19/2013,US,"37.911289, -75.469622",Wallops Island,VA,23337-5099
Wallops Flight Facility/GSFC,Public,Mobile Range Systems,1/1/1960,Active,http://www.nasa.gov/centers/wallops,3/1/1996,7/19/2013,US,"37.911289, -75.469622",Wallops Island,VA,23337-5099
Wallops Flight Facility/GSFC,Public,McMurdo Ground Station (MGS),1/1/1994,Active,http://www.nasa.gov/centers/wallops,3/1/1996,7/19/2013,US,"37.911289, -75.469622",Wallops Island,VA,23337-5099
Wallops Flight Facility/GSFC,Public,National Scientific Balloon Facility,1/1/1977,Active,http://www.nasa.gov/centers/wallops,3/1/1996,7/19/2013,US,"37.911289, -75.469622",Wallops Island,VA,23337-5099
Wallops Flight Facility/GSFC,Public,Main Base Laboratories and Shops,1/1/1959,Active,http://www.nasa.gov/centers/wallops,3/1/1996,7/19/2013,US,"37.911289, -75.469622",Wallops Island,VA,23337-5099
Wallops Flight Facility/GSFC,Public,Poker Flat Research Range & SAR Facility,1/1/1970,Active,http://www.nasa.gov/centers/wallops,3/1/1996,7/19/2013,US,"37.911289, -75.469622",Wallops Island,VA,23337-5099
Wallops Flight Facility/GSFC,Public,Wallops Orbital Tracking Station,1/1/1960,Active,http://www.nasa.gov/centers/wallops,3/1/1996,7/19/2013,US,"37.911289, -75.469622",Wallops Island,VA,23337-5099
Wallops Flight Facility/GSFC,Public,White Sands Missile Range,1/1/1964,Active,http://www.nasa.gov/centers/wallops,3/1/1996,7/19/2013,US,"37.911289, -75.469622",Wallops Island,VA,23337-5099
Wallops Flight Facility/GSFC,Public,Launch Range,1/1/1959,Active,http://www.nasa.gov/centers/wallops,3/1/1996,7/11/2013,US,"37.911289, -75.469622",Wallops Island,VA,23337-5099
Wallops Flight Facility/GSFC,Public,WFF Research Airport,1/1/1958,Active,http://www.nasa.gov/centers/wallops,3/1/1996,7/19/2013,US,"37.911289, -75.469622",Wallops Island,VA,23337-5099
